<svg width="61" height="60" viewBox="0 0 61 60" xmlns="http://www.w3.org/2000/svg" xmlns:xlink="http://www.w3.org/1999/xlink">
    <defs>
        <path id="a" d="M0 0h60v60H0z"/>
    </defs>
    <g fill="none" fill-rule="evenodd">
        <g transform="translate(.5)">
            <mask id="b" fill="#fff">
                <use xlink:href="#a"/>
            </mask>
            <path d="M60 30c0 16.568-13.432 30-30 30C13.432 60 0 46.568 0 30 0 13.432 13.432 0 30 0c16.568 0 30 13.432 30 30" fill="#56B07D" mask="url(#b)"/>
        </g>
        <path d="M36.5 21a6 6 0 0 1-6 6 6 6 0 0 1-6-6 6 6 0 0 1 6-6 6 6 0 0 1 6 6M21.5 20.5a4.5 4.5 0 1 1-9 0 4.5 4.5 0 0 1 9 0M30.5 28c-4.977 0-9 2.297-9 7.203C21.5 40.11 25.523 48 30.5 48s9-7.85 9-12.797c0-4.906-4.023-7.203-9-7.203M18.869 35.16c0-3.086 1.323-5.558 3.631-7.14-1.298-1.356-3.414-2.02-5.828-2.02-3.965 0-7.172 1.756-7.172 5.507C9.5 35.258 12.707 41 16.672 41c1.078 0 2.092-.442 3.01-1.134-.526-1.638-.813-3.27-.813-4.706" fill="#FEFEFE"/>
        <path d="M24.5 21a6 6 0 0 0 6 6 6 6 0 0 0 6-6 6 6 0 0 0-6-6 6 6 0 0 0-6 6M39.5 20.5a4.5 4.5 0 1 0 9 0 4.5 4.5 0 0 0-9 0M30.5 28c4.977 0 9 2.297 9 7.203C39.5 40.11 35.477 48 30.5 48s-9-7.85-9-12.797c0-4.906 4.023-7.203 9-7.203M42.131 35.16c0-3.086-1.324-5.558-3.631-7.14 1.298-1.356 3.414-2.02 5.828-2.02 3.965 0 7.172 1.756 7.172 5.507 0 3.751-3.207 9.493-7.172 9.493-1.078 0-2.092-.442-3.01-1.134.526-1.638.813-3.27.813-4.706" fill="#FEFEFE"/>
    </g>
</svg>
