<svg width="337" height="82" viewBox="0 0 337 82" xmlns="http://www.w3.org/2000/svg" xmlns:xlink="http://www.w3.org/1999/xlink">
    <defs>
        <path id="a" d="M0 61.977h120.14V0H0z"/>
        <path id="d" d="M0 0h13.598v19.945H0z"/>
        <path id="f" d="M0 0h7.186v7.793H0z"/>
        <path id="h" d="M0 0h4.333v6.082H0z"/>
        <path id="j" d="M0 81.047h188.79V0H0z"/>
        <filter color-interpolation-filters="auto" id="c">
            <feColorMatrix in="SourceGraphic" values="0 0 0 0 1.000000 0 0 0 0 1.000000 0 0 0 0 1.000000 0 0 0 1.000000 0"/>
        </filter>
    </defs>
    <g fill="none" fill-rule="evenodd">
        <g transform="translate(.256)">
            <path d="M49.496 36.598a.393.393 0 0 1-.16.16M50.955 25.192c.17 0 .306-.136.306-.305a.307.307 0 0 0-.306-.308.308.308 0 0 0-.305.308c0 .17.137.305.305.305" fill="#FEFEFE"/>
            <mask id="b" fill="#fff">
                <use xlink:href="#a"/>
            </mask>
            <path d="M61.441 18.498h3.345v-5.891H61.44v5.891zm3.345 2.799c-.059.636-.275 1.165-.714 1.464l-2.63 1.57V18.8h3.344v2.497zm-6.733-2.799h3.088v-5.891h-3.088v5.891zm3.088 6.013-1.216.726h-.02a.507.507 0 0 1-.644-.004l-1.208-.722V18.8h3.088v5.71zm-4.338-6.013h.95v-2.157h-.95v2.157zm.95 5.833-2.63-1.57c-.44-.3-.657-.828-.714-1.464V18.8h3.344v5.531zM54.41 14.88h1.155v-2.274h-1.155v2.274zm1.442-1.42.135-.14-.083-.157.177.02.108-.189.104.186.181-.017-.084.157.134.14-.172.033v.192l-.163-.123-.164.123v-.192l-.173-.033zm.819 2.375c-.009-.057-.085-.073-.117-.073-.102 0-.144.17-.23.175-.063.003-.108.009-.108-.068 0-.059.13-.104.18-.153-.712 0-.726.327-.838.327-.187 0 .156-.343.255-.444-.143-.023-.227-.2-.385-.289.074-.108.116-.061.21.012 0-.073.055-.162.222-.162.318 0 .229.308.28.308.052 0-.003-.308.21-.308.316 0 .712.813.353.813-.153 0-.029-.116-.032-.138zm-.767 1.735.177.018.108-.187.104.185.181-.016-.084.154.134.142-.172.032v.194l-.163-.124-.164.124v-.194l-.173-.032.135-.142-.083-.154zM54.6 15.375l.177.02.108-.19.104.186.18-.016-.083.156.135.14-.172.034v.19l-.164-.121-.164.122v-.191l-.172-.035.135-.14-.084-.155zm-.19 3.123h1.155v-2.157h-1.155v2.157zm2.653-2.828.136-.14-.085-.155.178.02.106-.19.106.186.18-.016-.083.156.135.14-.173.034v.19l-.165-.121-.162.122v-.191l-.173-.035zm-.26-.791h.951v-2.274h-.95v2.274zm8.293-2.57v-.004H54.1v.004h-.003l.01 8.875c0 .857.362 1.606.863 1.836l4.229 2.525a.516.516 0 0 0 .73.04l4.293-2.565c.503-.23.865-.979.865-1.836l.009-8.875h-.001z" fill="#FEFEFE" mask="url(#b)"/>
            <path d="M57.576 20.833c-.017-.036-.42.134-.305.121.012-.118.235-.36.336-.45-.02-.141-.199-.012-.387.085.626-.897.224-.53-.125-.464.559-.602.412-.593 0-.405.323-.257.391-.562.342-.652-.303.405-.582.343-.582.717 0 .247-.09.653-.217.79-.164.177-.039-.662-.467-.662-.138 0-.461-.011-.559.156.087 0 .218.224.218.311 0 .089.08.334-.065.334-.147 0-.318-.309-.318-.457 0-.148-.01-.113-.01-.324 0-.357-.577-.855-.813-.855 0 .246.322.306.322.621-.136 0-.332-.256-.332-.098 0 .159.206.187.206.326s-.235-.05-.235.099c0 .13.129.108.159.235-.095-.027-.18-.014-.198.035-.015.042.03.097.1.137-.033.03-.06.106-.06.313 0 .7.44 1.027.761 1.027.23 0 .195-.16.222-.239.01.12.123-.058.123.15 0 .216-.224.12-.224.309 0 .25.353-.01.353.268 0 .336-.042.33-.042.458 0 .086.37-.125.347-.161.089.031.084.291.249.285.106-.004.128-.267.211-.289-.048.012.335.249.335.13 0-.326-.133-.189-.133-.413 0-.206.452-.166.38-.272-.06-.089-.1-.035-.149-.19.009.03-.356-.518.076-.236.454.297.505-.69.48-.74M69.306 23.154c.2 0 .36-.143.36-.32 0-.174-.16-.317-.36-.317-.2 0-.362.143-.362.318 0 .176.162.319.362.319M67.844 24.023c.2 0 .36-.143.36-.319 0-.176-.16-.318-.36-.318-.2 0-.361.142-.361.318 0 .176.161.32.361.32M50.463 26.025c.2 0 .361-.143.361-.319 0-.176-.162-.317-.36-.317-.2 0-.362.141-.362.317 0 .176.162.32.361.32M51.59 26.121c.201 0 .361-.141.361-.318 0-.176-.16-.32-.361-.32-.2 0-.361.144-.361.32 0 .177.16.318.36.318M82.879 10.965c.537.638.653 1.661.269 2.394-.21-.019-.174-.289-.21-.443-.385-.714-.692-1.622-.347-2.432.25.038.153.346.288.481M36.967 11.834c-.114.463-.114 1.1 0 1.524-.096.099-.076-.095-.172-.075-.749-.54-.403-1.604-.594-2.356.038-.058.133-.077.191-.038.344.231.499.56.575.945M84.528 11.892c.116.212-.095.425-.249.52-.173.041-.365-.057-.48-.21-.057-.213.058-.406.232-.504.19-.018.383.02.497.194M35.797 12.742c-.038.173-.095.347-.249.425-.114 0-.288 0-.364-.096-.116-.099-.134-.272-.078-.407.078-.135.23-.154.365-.173.135.057.269.097.326.251M85.276 13.07a.42.42 0 0 1 0 .308c-.133.174-.326.251-.518.174-.134-.078-.172-.212-.21-.328.038-.154.191-.29.325-.347.173 0 .288.095.403.193M84.183 13.09c.153.076.038.268.02.384-.097.097-.23.252-.404.193-.096-.096-.21-.096-.249-.23 0-.194.077-.387.27-.444.153-.04.248.038.363.096M82.783 13.378c0 .213.019.484-.23.521-.23.078-.383-.116-.441-.27a.455.455 0 0 1 .288-.462c.153 0 .288.097.383.211M37.887 13.474c.058.194-.134.308-.247.407-.135.038-.308-.077-.385-.213-.134-.134.038-.25.077-.366.191-.174.479-.038.555.172M36.736 13.534c0 .154-.076.308-.21.366-.153.058-.306-.058-.383-.174-.096-.192.02-.367.172-.443.212-.079.345.115.421.25M78.142 13.61c.192.406.344.888.384 1.39-.076.368.058.849-.212 1.1-.269-.097-.287-.424-.46-.597-.345-.676-.038-1.469.078-2.125.152-.058.152.135.21.232M35.836 13.842c.056.232-.115.347-.25.482-.229.058-.382-.115-.48-.27a.482.482 0 0 1 .251-.462.49.49 0 0 1 .48.25M81.172 14.401c.25.562.27 1.237.096 1.853l-.116.098c-.268-.522-.652-1.004-.786-1.565 0-.405.077-.77.23-1.1.135-.095.212.02.269.136.02.21.116.464.307.578M83.59 14.054c-.021.193-.097.405-.29.463-.19.04-.382-.019-.44-.23-.059-.194.058-.368.21-.464.212-.116.423.076.52.23M36.757 14.652a.414.414 0 0 1-.289.368c-.153.114-.267-.077-.402-.135-.057-.156-.097-.29 0-.445.058-.116.191-.116.307-.154.173.096.345.173.384.366M37.6 14.557c.076.193-.135.289-.211.385-.23.078-.345-.096-.44-.231-.04-.194.076-.31.21-.425.23-.058.345.096.44.271M84.126 14.498c-.02.25-.405.503-.441.752-.212.523-.672.909-1.19 1.082-.115.097-.268.232-.44.252-.039-.387.306-.735.517-1.08.402-.524.96-.851 1.554-1.006M36.373 15.309c.287.33.44.618.786.907.02.078-.039.193-.134.193-.94-.058-1.573-1.024-2.034-1.7.059-.21.307-.037.443-.056.326.25.69.327.94.656M84.395 15.579c-.04.83-.442 1.68-1.19 2.085-.21.077-.44.289-.652.154.402-.829 1.017-1.504 1.687-2.24h.155zM80.712 16.138c.057.292-.095.465-.325.562-.212.018-.346-.157-.442-.311a.403.403 0 0 1 .269-.424c.056-.057.153-.057.229-.057.116.038.174.135.269.23M35.317 16.313c.366.25.691.599 1.036.908-.249.173-.556.018-.843.018-.652-.23-1.093-.79-1.765-.985.018-.21.27-.135.402-.191.423-.04.768.153 1.17.25" fill="#FEFEFE" mask="url(#b)"/>
            <path d="M55.857 10.599c-1.074-.426-1.783.695-2.876.56-.134.077-.097.212-.172.309-.059.057-.155.018-.212-.02-.057-.463-.21-.888-.27-1.331-.114-.195-.057-.465-.152-.657-.613-1.68 1.496-.406 1.918-1.39.366-.85-.71-.946-1.036-1.545v-.25c-.307-.31-.633-.405-.825-.812.135-.481.192-1.003.059-1.486-.02-.115-.097-.27-.27-.212-.364.502-.632.908-.977 1.39-.365-.27-.71-.616-1.132-.85-.287-.038-.557-.328-.881-.213-.058.117 0 .213.057.29.019.753.401 1.353.939 1.893l.058.29c-.346.79-.249 1.698-.346 2.547-.863 2.201-2.262 4.325-4.16 5.85-1.095 1.236-2.398 2.432-2.572 4.13-.056.27.04.598-.172.793-.632-.233-1.265-.54-1.783-.946-.882-.618-2.148-.541-2.723-1.66-.23-.444.058-.89.269-1.217.65-.619.556-1.718.21-2.47-.076-.02-.096.076-.153.095-.057 1.14-.96 1.931-.614 3.186.077.367.268.597.364.945-.134-.037-.325-.037-.44-.096-.422-.058-.845-.231-1.286-.174-.882.406-2.09-.096-2.8.715-.115.019-.268.038-.23.211.422 0 .825.117 1.248.098.669.114 1.111-.445 1.572-.696h.113c.194-.193.52-.077.77-.115 1.207.135 2.147.713 3.145 1.313v.076c-.384.175-.825.29-1.21.502-.44.33-.939.753-1.073 1.294-.307.482.095.907.288 1.313.018.192.037.424.21.502.614-.658.038-1.468.135-2.22.153-.58.69-.85 1.246-1.004 1.093-.463 1.88.423 2.76.927-.018.887.098 1.736-.094 2.605a2.383 2.383 0 0 1-.902.135c-1.515.116-2.703.946-4.066 1.41-.612.212-1.342.193-1.955.424.48.135.978-.039 1.477-.057 1.878-.271 3.318-1.72 5.35-1.469l.038.06c-.23.482-.537.888-.902 1.254-.057-.212-.076-.387-.269-.503-.152-.076-.325 0-.439.156-.057.095-.057.211 0 .289.095.174.249.213.42.27-.037.173-.248.252-.364.405-.537.908-1.629.54-2.263 1.178-.096.135-.44.213-.286.425a2.878 2.878 0 0 0 1.974-.503c.71-.79 1.458-1.544 2.168-2.296.114.617-.058 1.255-.422 1.756-.173-.095-.307-.231-.519-.29-.19.04-.325.233-.343.387.074.135.152.289.286.387-.65.462-1.476.502-2.224.712-1.4.175-2.762.291-4.181.31-.67-.04-1.44.193-2.07 0-.73.136-1.516-.096-2.111.31-.077.096.018.19.018.288.884.58 2.092.117 3.09.29h7.555c.557-.019 1.111-.038 1.554-.29.977-.559 1.515-1.564 2.013-2.547.192-.349.327-.753.403-1.16a1.669 1.669 0 0 1 1.438-1.176c.096 1.004-.095 2.007-.326 2.934-.115.618-.517 1.216-.268 1.873.057.308.384.308.632.347 2.32-.039 4.642-.135 7.096.038.44.078.825.213 1.304.193.038-.059.172-.076.115-.193-.057-.212-.21-.482-.46-.54-.037-.116-.21-.077-.269-.155-1.226-.695-2.703-.327-4.142-.308-.748.077-1.495.212-2.128-.214-.287-.346-.077-1.447-.077-1.447 0-.435 1.056-3.474 1.19-3.726.038-.288.152-.558.114-.887.153-.387.116-.887.116-1.314.077-.617.383-1.195.594-1.794.114-.29.21-.598.326-.888.115-.366.154-.713.383-1.005.626.398 1.238.386 1.539 1.096l.263 1.608c0 .097.077.29.212.173.499-.329.345-1.061.345-1.563.115-.599-.306-.887-.48-1.409-.134-.097-.354-.558-.354-.558-.077-.424-1.007-.717-.795-1.238.113-.443.23-.848.652-1.1.061.043.087.089.095.136l.23-.16.024-1.614c.62-.002 1.548.076 2.18.076.175.059.31.194.5.212l.154-.212 1.554-.301c-.66.071-1.06-.685-1.69-.685" fill="#FEFEFE" mask="url(#b)"/>
            <path d="M57.545 11.284c.048-.006.094-.015.144-.027l-.144.027zM40.841 16.66c.02.232-.114.367-.288.445-.154-.059-.268-.078-.364-.233-.077-.212.115-.366.268-.443.154.038.345.057.384.231M39.595 16.66c.115.116.134.31.077.445-.134.116-.346.211-.462.058-.114-.117-.229-.252-.133-.406.133-.135.365-.251.518-.097M66.29 16.873l.017.027M80.904 17.2c.076.214-.097.367-.249.445-.193-.058-.441-.097-.441-.348.018-.155.152-.25.286-.29.173-.056.327.08.404.193M81.92 17.163c.057.096.192.25.039.347-.078.057-.135.077-.193.154-.21.038-.402-.038-.46-.231-.038-.212.135-.31.289-.406.133-.038.229.059.325.136M34.78 17.394c-.075.232-.268.328-.517.25a.773.773 0 0 1-.153-.25c.018-.135.057-.27.21-.33.231.022.404.117.46.33M41.245 17.722c-.021.155-.193.29-.326.367-.192.019-.328-.136-.423-.27 0-.155.076-.348.23-.387.211-.076.442.078.519.29M40.113 17.587c.057.058.114.212.057.309-.115.096-.288.27-.479.155-.117-.098-.25-.174-.212-.368.077-.077.173-.192.289-.231.152-.038.229.058.345.135M84.854 17.818c0 .156-.152.31-.25.368a.378.378 0 0 1-.421-.097c-.116-.039-.077-.193-.077-.29a.666.666 0 0 1 .365-.251c.173.039.287.154.383.27M86.081 17.992c-.057.174-.191.329-.364.347-.115-.018-.325-.056-.288-.231 0-.135.077-.27.173-.31a.338.338 0 0 1 .48.194M36.967 18.262c.04.233-.038.386-.23.464-.135.077-.268-.02-.364-.096-.096-.097-.172-.252-.096-.387.038-.174.21-.135.325-.212.173.02.27.096.365.231M37.907 18.436c.057.155-.116.212-.154.329-.095.057-.23.114-.345.038-.134-.117-.288-.29-.153-.464.153-.288.556-.135.652.097M83.722 18.34c.02.193-.153.328-.267.445a.332.332 0 0 1-.385-.233c-.018-.154.078-.27.212-.367.173-.018.345 0 .44.154M85.296 18.649c-.04.174-.02.366-.211.482-.155.038-.346.019-.46-.076-.116-.097-.135-.27-.076-.406.095-.155.267-.27.46-.232.133.077.171.173.287.232M36.239 19.055c.076.153-.096.192-.154.27-.135.076-.269.02-.383-.04-.136-.077-.077-.27-.058-.365.172-.33.518-.097.595.135M84.087 19.42c.077.02.039.135.02.175-.461.23-1.151.29-1.553-.078-.23-.192-.518-.27-.768-.425.095-.25.441-.232.69-.289.555.077.998.598 1.61.617M37.16 19.247c.037.154-.078.213-.116.33-.077.113-.23.075-.326.037-.172-.116-.25-.33-.135-.483.212-.212.46-.095.576.116M38.847 19.363c.076.173-.04.328-.192.425-.135.078-.25-.04-.364-.058-.096-.135-.27-.29-.096-.445.173-.29.516-.135.652.078M61.019 20.18c-.036.383-.674-.055-.583.458.09.367.164.807.383 1.083.181.256.09.659.073.97-.165.277-.437.478-.73.624-.546-.054-1.348.275-1.603-.403-.108-.293-.31-.588-.31-.917.055-.036.13-.036.183-.09 0-.13-.146-.204-.128-.332.62-.11-.254-.66.273-.696.437.457 1.148.312 1.531.806.091.073.164.185.274.238-.074-.459-.292-.916-.365-1.412a.635.635 0 0 1 .219-.641c.329-.256.601.11.783.312M40.534 20.058c.058.194-.095.308-.21.406-.173.076-.27-.117-.346-.212-.057-.194.077-.292.192-.387.134 0 .287.057.364.193M52.367 20.252c.23.752.154 1.523-.231 2.16-.019.155.039.406-.172.387-.518-.715-.134-1.718.077-2.472.038-.191.269-.269.326-.075M68.783 20.617c.27.541.287 1.255.039 1.796l-.154.154c-.21-.443-.383-.888-.44-1.37.095-.348.21-.656.23-1.023.269-.058.248.29.325.443M42.03 20.83c-.114.232-.441.29-.653.444-.458.347-1.13.425-1.705.329.497-.696 1.265-1.103 2.185-.908.038.075.135.039.173.135M34.148 21.525c.71.502.902 1.195 1.323 1.892.058.076.249.096.173.251-.154.116-.307-.115-.518-.078-.73-.33-1.189-1.14-1.17-1.988 0-.077.115-.077.192-.077M68.035 22.124c.02.192-.02.384-.173.443a.35.35 0 0 1-.44-.232c-.058-.135.056-.211.095-.309.154-.153.422-.076.518.098" fill="#FEFEFE" mask="url(#b)"/>
            <path d="M76.129 23.146c0-.366.095-.714.133-1.061a.71.71 0 0 0 .078-.405c.46-.618 1.399-.425 2.128-.368.288.155.653.135.959.213.135-.097.326-.115.48-.097.614-.328.21-1.042.25-1.603l-.23-.578a2.236 2.236 0 0 1-.154-.387c-.116-.135-.193-.385-.307-.52-.327-.849-.96-1.333-1.497-2.008-.978-1.274-2.512-1.989-4.047-2.49-1.514-.522-3.05.154-4.41.637-.421-.116-.633-.446-.749-.81a3.836 3.836 0 0 1 .365-2.048c.06-.482.384-.848.518-1.293.346-1.08.709-2.143.787-3.32.038-.714-.499-1.217-1.036-1.525-.364-.097-.787-.077-1.054.212-.25.521-.787.87-1.247 1.12-.039.328.364.115.498.232.422.077.902-.058 1.246.212.039.773-.402 1.41-.804 1.988-.652.966-1.342 1.95-1.747 3.012l-.075-.077.093 4.718c.61 1.017 1.375 2.176 2.515 2.56.613.5 1.38 1.1 2.204.656.442-.135.48.483.691.733.23.714-.287 1.217-.326 1.871l-.499 1.064c-.575 1.12-1.093 2.316-1.975 3.261-.288 0-.46.31-.747.33-.154.21-.46.057-.652.135-.595.25-1.44.096-1.842.657.038.056.095.076.154.095 1.169.018 2.474.096 3.72.039.154-.058.29-.194.308-.367-.172-.328.057-.618.21-.87.096-.463.403-.75.538-1.196.402-.792.862-1.564 1.303-2.355l.594-.965c.134-.328.365-.733.595-1.081.153-.155.23-.327.346-.52.018-.195-.077-.271-.193-.406.135-.135.346-.097.519-.135.48.288.978.752 1.074 1.274l.172.5.077.232-.039.638.077.598c.096.926-.077 1.872-.173 2.8-.326 1.12-1.61 1.003-2.531 1.254-.23.155-.67.078-.67.465 1.11.23 2.416.095 3.604.076.192-.076.23-.251.326-.425.039-.25.288-.464.212-.734-.212-.27-.019-.695-.077-1.061a.602.602 0 0 0 0-.367c.153-.558.114-1.235.23-1.776l.077-.734zM85.563 22.394c-.613.868-1.265 1.853-2.338 2.162-.077 0-.155.037-.194-.058.653-.694 1-1.777 2.015-2.027.153-.077.364-.155.517-.077M33.208 23.34c-.095.077-.02.25-.191.27-.154.077-.326-.02-.403-.173-.077-.195.096-.387.25-.425.153.077.306.134.344.327M38.732 23.61c.056.173-.135.173-.23.212-.807.29-1.63.02-2.206-.56 0-.077 0-.155.077-.173.786.193 1.706.037 2.359.522M34.263 23.358c.038.078.058.213.038.29-.114.175-.286.213-.479.175-.115-.06-.173-.135-.25-.252.02-.193.173-.31.326-.367.153.02.27.057.365.154M52.232 23.455c.038.173-.114.291-.229.368a.381.381 0 0 1-.403-.155c-.057-.135 0-.328.134-.368.173-.039.441-.017.498.155M86.293 23.534c.058.192-.114.29-.25.405-.115.057-.249 0-.364-.06-.02-.096-.134-.173-.096-.308.076-.173.25-.25.44-.232.098.079.174.097.27.195M87.56 23.455c.113.173.017.308-.078.444a.265.265 0 0 1-.346.116c-.115-.116-.269-.174-.287-.347 0-.155.172-.27.287-.328.193-.079.27.115.423.115M32.402 24.015c.02.135-.095.213-.133.33-.096.037-.192.115-.307.076a.56.56 0 0 1-.287-.309.505.505 0 0 1 .345-.387c.153.039.326.117.382.29" fill="#FEFEFE" mask="url(#b)"/>
            <path d="M72.791 24.015c.039.078.02.173.02.25-.115.156-.269.291-.461.195-.115-.116-.249-.232-.191-.406.154-.212.479-.29.632-.04M35.49 24.304c-.038.135-.095.27-.268.29-.172.02-.23-.133-.326-.212 0-.175-.02-.348.154-.443.23-.078.44.115.44.365M33.65 24.344c.057.192-.077.327-.192.425-.23.076-.423-.098-.518-.27.018-.177.154-.387.345-.446.173 0 .27.194.364.291M74.057 24.304c.039.194-.019.386-.211.465-.23.076-.42-.117-.518-.27.097-.155.116-.368.346-.406.172 0 .287.077.383.21M34.551 24.382c.057.135-.057.192-.097.29-.095 0-.153.115-.267.077-.077-.097-.23-.135-.25-.27-.02-.194.115-.292.25-.367.19-.02.307.115.364.27M85.238 24.536c-.058.155-.173.232-.327.31-.153.038-.249-.097-.363-.155-.098-.077-.058-.252-.02-.347.192-.329.71-.174.71.192M86.695 24.614c-.057.212-.268.308-.46.329-.172-.08-.365-.214-.23-.445.077-.077.116-.154.23-.176.23-.075.403.099.46.292M77.585 24.75c.097.249-.133.327-.287.442a.871.871 0 0 1-.365-.153.447.447 0 0 1 .27-.503c.173 0 .268.078.382.213M72.313 24.98c.095.04.056.174.036.232-.113.077-.267.27-.44.155-.134-.078-.23-.193-.191-.367.095-.213.498-.231.595-.02M73.386 25.115c.019.154-.019.233-.154.31-.134.135-.288-.019-.422-.058-.038-.078-.076-.193-.02-.29a.434.434 0 0 1 .25-.155c.135.038.288.038.346.193M40.841 25.134c.115.116-.02.25-.039.368-.096.115-.306.212-.479.096-.191-.078-.173-.33-.134-.483.115-.039.115-.173.268-.173.173.018.27.096.384.192M79.638 25.211c.038.195-.153.27-.287.31-.23.076-.346-.097-.442-.252 0-.115.116-.193.153-.289.27-.115.441.077.576.231M78.603 25.211c.076.195-.135.291-.212.386a.38.38 0 0 1-.422-.076c-.096-.059-.096-.173-.096-.289.116-.097.172-.213.307-.252a.5.5 0 0 1 .423.231M87.252 25.444c.038.27-.307.135-.441.212-.806.482-1.842.116-2.608-.175.057-.25.346-.153.5-.25.823-.522 1.667.116 2.49.153l.059.06zM34.761 25.211l-.077.137c-.709.424-1.63.713-2.472.443l-.077-.116c.71-.52 1.649-.656 2.57-.52l.056.056zM81.594 25.348c0 .154-.077.29-.192.366-.19.058-.441 0-.499-.212-.057-.154.097-.31.249-.367.135 0 .365.02.442.213M38.195 25.425c-.077.154-.039.308-.23.384-.193.08-.423-.095-.48-.25-.058-.211.096-.27.192-.367.23-.115.402.059.518.233M36.833 25.52c.058.137-.058.212-.097.31-.095.116-.267.096-.383.058-.133-.117-.268-.252-.21-.464.114-.097.173-.155.307-.212.173.039.345.115.383.309M82.937 25.965a.416.416 0 0 1-.307.348c-.154.02-.288-.097-.365-.194a.3.3 0 0 1 .077-.366c.038-.058.172-.058.249-.096a.406.406 0 0 1 .346.308M35.413 25.753c.058.155-.076.212-.096.328-.057.328-.267.54-.42.83-.366.442-.883.442-1.4.578l-.078-.154c.556-.713 1.15-1.274 1.938-1.621l.056.039zM81.977 26.178c.039.231-.154.27-.288.365a.437.437 0 0 1-.383-.23c-.058-.213.135-.29.25-.387.192-.039.364.096.421.252M37.619 26.178c-.02.038.02.076.058.095-.018.214-.172.27-.288.368a.52.52 0 0 1-.422-.193c-.076-.175 0-.387.192-.445.173-.02.403 0 .46.175M85.506 26.756c.193-.019.23-.25.442-.29.192-.037.363.078.46.214.076.231-.097.347-.25.444-.134.095-.422-.117-.403.135.135.095.25.231.27.386-.038.076-.174.057-.23.02-.558-.233-1.151-.619-1.382-1.198-.076-.174-.44-.31-.23-.464.557-.038 1.016.407 1.323.753M87.347 26.158c.096.096.059.271-.018.366-.097.195-.384.116-.557.098-.096-.098-.191-.193-.153-.35a.614.614 0 0 1 .287-.25c.172-.038.306.039.441.136M80.386 27.2c.172.212.344.541.422.772-.039.06-.134.038-.173.038-.651-.365-1.495-.77-1.745-1.543-.058-.078-.211-.174-.193-.31.5-.096.979.272 1.325.541.134.194.287.29.364.502M36.546 26.467c.076.173-.077.308-.173.386-.211.039-.327-.04-.441-.154-.135-.211.114-.386.269-.464.152-.018.248.135.345.232M82.783 26.91c.019.116-.134.195-.192.272-.153.018-.306.076-.44-.059-.04-.097-.134-.251-.02-.348.211-.27.518-.057.652.135M87.56 27.182c.056.23-.117.385-.271.482-.19.057-.344-.078-.46-.174-.095-.115-.018-.232 0-.367.134-.115.307-.213.5-.135.077.058.153.095.23.194M74.287 29.845c0 .232-.422.174-.594.347-.595.31-1.304.31-2.014.29v-.116c.69-.58 1.688-.79 2.608-.52M46.308 30.676c-.02.173-.116.27-.289.328a.374.374 0 0 1-.326-.193c-.077-.233.115-.33.25-.425.172.02.326.155.365.29M73.962 30.887c-.04.175-.097.368-.288.445-.173.038-.289-.058-.423-.135-.095-.078-.037-.213-.056-.31.133-.346.631-.346.767 0M77.778 30.965c-.479.309-1.016.675-1.649.675l-1.036-.02-.097-.077c.634-.773 1.785-.773 2.782-.694v.116zM41.052 31.427c0 .175-.077.31-.249.368-.192.037-.327-.038-.404-.173-.076-.174 0-.348.153-.446.212-.135.423.098.5.251M42.011 31.621c.057.095-.038.155-.077.251-.115.057-.268.097-.364 0-.135-.078-.173-.213-.115-.329.058-.116.173-.096.23-.172.134.056.268.115.326.25M34.666 33.571c-.192.233-.498-.059-.71-.175-.672-.385-.651-1.139-1.324-1.582.077-.233.25.019.384-.02.115.079.268.155.404.214.65.366.804.983 1.246 1.563" fill="#FEFEFE" mask="url(#b)"/>
            <path d="M60.077 33.203c-.077.234-.23.426-.212.678l-.077.036c.058-.288-.23-.462-.152-.771-.154-.231-.154-.52-.288-.773-.172-.309.152-.444.288-.657.268.116.364.369.554.6.117.327-.133.58-.113.887m30.492-7.122c-.307-.56-.825-.791-1.438-.791-.498.038-.864.367-1.075.79a.978.978 0 0 0 .365 1.063c.134.056.308.039.384-.097.096-.252-.172-.252-.211-.444-.077-.27.02-.502.21-.676.192-.193.519-.096.748-.096.231.154.462.289.575.559.117.33.117.695 0 1.024-.21.481-.69.867-1.188.965-1.592.231-19.063.155-19.063.155-2.05.192-4.392-.388-6.155.695-.806.385-1.21 1.274-1.419 2.064-.518.464-1.075 1.005-1.496 1.527l-.058-.058c.094-.464.306-.87.402-1.334.288-.386.288-.906.5-1.332.728-1.176 1.419-2.374 2.55-3.204.48-.637 1.323-.52 2.05-.52.788.367 1.708.482 2.667.385a.172.172 0 0 0 .057-.135c-.268-.25-.709-.348-1.016-.599-.767-.365-1.495.116-2.3.059-.04-.038-.078-.059-.058-.116.729-.54 1.553-.927 2.379-1.275.67-.367 1.38-.56 2.089-.83.287 0 .556-.25.825-.077l1.016-.27c.039.02.077.077.154.059.862-.29 1.957-.02 2.933-.038l.135.113.92.233c.345.039.499.443.863.464.193-.272-.21-.387-.307-.56.423-.097.902.02 1.285.193l-.19.21c-.117.213.057.37.23.446.134.038.23-.059.324-.097.25-.173-.018-.348.058-.502 1.42.25 2.781.599 4.086 1.159.364.115.709.385 1.112.367-.403-.367-.96-.56-1.458-.773-.326-.194-.786-.213-1.035-.483.057-.097.192-.057.25-.134.651-.077 1.207-.56 1.668-1.081.038-.116.248-.077.229-.233-.172-.192-.46.059-.69.04-.805.154-1.151 1.1-1.956 1.274-.977-.23-1.975-.463-2.954-.715-.479-.078-.997-.116-1.437-.31l-1.075-.095h-1.957c-.018-.038-.075-.059-.057-.116.69-.173 1.286-.58 1.977-.753l5.139-2.356a12.44 12.44 0 0 0 1.457-1.582.366.366 0 0 0-.212-.367c-.133-.058-.286-.038-.382.078-.23.173 0 .385 0 .598-.23.31-.596.58-.882.753-.076-.02-5.293 2.374-5.293 2.374-.768.329-1.535.695-2.34.87l-1.113.172c-.077.233-.268.368-.479.444-.307.059-.557.252-.882.252-2.494.965-5.083 1.988-7.058 3.957.115-.23.173-.52.192-.81-.038-.29-.019-.618-.211-.85-.044-.106-.186-.418-.14-.53l-.282.184c-.173.423-.326 1.196-.153 1.64.057.346.345.752.076 1.061-.92 1.12-1.439 2.472-2.052 3.746-.23-.04-.345-.252-.44-.464.651-.83 1.169-1.757 1.361-2.818.135-.097.038-.348.172-.464-.037-.309.172-.617.02-.87.122-.419-.56-.81-.124-1.08l-.363.174c-.824 1.081.43 2.702-.51 3.745v.077c-.27.348-.403.696-.768.926-.46-.192-.632-.713-.902-1.1-.421-.405-.421-1.235-.171-1.796.171-.559-.115-1.04-.173-1.543l-.192-.115c-.46.597-.632 1.544-.268 2.258.19.348.21.83.498 1.12.173.56.517.927.824 1.427.078.194-.114.232-.21.33-.21-.136-.173-.446-.364-.581-.633-1.35-1.458-2.432-2.454-3.532-.04-.175-.212-.327-.117-.52.364-.348.441-1.024.25-1.468-.038-.096-.153-.213-.133-.31l-.289-.23c.039.676-.402 1.273-.21 1.988v.039a36.446 36.446 0 0 0-6.386-3.857l-.176.49c.561.141 2.055 1.05 2.055 1.05.671.25 1.284.656 1.917 1.022 2.608 1.448 4.334 3.842 5.503 6.508.02.21.212.443.078.656-.403-.62-.978-.966-1.457-1.469-.135-.906-.672-1.776-1.459-2.143-.288-.423-.9-.462-1.38-.597l-6.981-.04c-5.677-.078-10.854.175-16.493.078-.786-.077-1.745-.347-1.975-1.177-.153-.29-.153-.791 0-1.061.212-.368.594-.484.977-.522.307.038.518.327.653.541 0 .25-.212.482-.307.695.02.077.095.231.23.172.25-.095.442-.365.499-.616.018-.136.077-.329-.057-.425-.115-.405-.537-.696-.902-.792-.48-.04-.979.096-1.304.444-.46.386-.441 1.08-.307 1.621.307.85 1.209 1.429 2.071 1.544l18.66.08c1.823.094 3.874-.215 5.715.153.672.213 1.382.713 1.554 1.467-.02.038-.077.019-.134.019-1.515-.984-3.51-1.352-5.447-1.119-.767-.04-1.457.252-2.148.443-.364.079-.71-.097-.94-.308-.69-.618-1.898-.58-2.78-.349 0 .06-.02.116.02.136.939-.076 1.494.735 2.339.83.191.04.345-.174.517-.02-.881.424-1.726.928-2.666 1.197-.287-.056-.44-.326-.671-.483-.364-.405-1.035-.23-1.533-.27-.173.04-.326-.076-.441 0 .152.31.498.484.824.637.479.213 1.035-.02 1.478.272-.117.135-.27.174-.405.27-.902.347-1.649 1.157-2.646 1.1-1.054.115-2.129-.194-2.839-.927-.306-.752-1.092-1.158-1.935-1.119-.059.037-.135.037-.116.135.422.25.747.752 1.17 1.042.268.327.786 0 1.035.367.365.251.825.463 1.247.54.306.136.652.193.997.27l-.135.079c-1.744.578-3.758.635-5.714.558-.576-.018-1.131-.19-1.707-.173.096.117.287.212.46.27a1.194 1.194 0 0 1-.518.155c-.23.059-.497.076-.729.194-.307-.02-.575.095-.825.192-.325.347-.709.713-1.092.888 0 .077-.02.193.077.193.364-.154.825-.038 1.188-.193.633-.058.998-.753 1.497-1.044.536-.423 1.304-.327 1.956-.23.384.095-.038.25.076.503.154.135.288.288.5.23a.316.316 0 0 1 .133-.095c.116-.156.097-.33.018-.484.27-.174.635.02.922-.095.728-.021 1.458-.176 2.168-.194.114-.02.248-.135.364-.02-.058.155-.25.174-.172.385.037.175.23.252.383.291.191-.077.363-.213.287-.462-.039-.137-.191-.156-.287-.213.402-.194.862-.252 1.265-.446.287-.057.557-.153.805-.27.25-.018.461-.25.691-.153-.097.326-.23.636-.403.926-.307 1.023-.536 2.374 0 3.36.057.019.077-.02.116-.04-.404-1.022-.173-2.202.172-3.164.268-1.642 1.956-2.125 3.166-2.744l.056.079c-.326.85-.806 1.66-.729 2.682.039.175-.077.348 0 .464.327-.172.537-.56.71-.888.134-.868-.365-1.95.518-2.587 1.572-.617 3.05-1.427 4.87-1.447.059.058.193-.04.211.076-.383.426-.94.83-1.111 1.35-.615.852-.595 2.3-.327 3.342.173.598-.345.927-.594 1.39-.12.164-.153.445-.263.634l.377.041c.328-.347.634-.772.653-1.275.039.194.21.349.364.387.135-.212-.115-.367-.135-.58.307-.172.443.213.691.291.404.096.747.27 1.17.27l.135-.134c-.424-.658-1.266-.772-1.996-.811-.382-.639-.382-1.429-.345-2.201.078-.407.155-.83.384-1.199.096-.269.365-.518.538-.732a2.679 2.679 0 0 1 1.207-.656h.059c0 .037.018.059.018.059-.518.404-.575.964-.882 1.464-.326.484-.48 1.14-.172 1.68.115.251.057.638.325.811.249-.347.27-.79.404-1.177-.059-.637-.441-1.236-.078-1.854.192-.482.596-.674 1.036-.848 1.055-.098 1.976.443 2.895.848.194.136.518.25.557.52-.02.525-.306 1.046-.71 1.295-.517.31-1.265.347-1.745-.019-.287-.289-.403-.791-.306-1.178.212-.231.498-.424.843-.308.192.095.364.29.614.173.095-.056.134-.212.077-.308-.211-.116-.288-.405-.575-.445-.365-.057-.806-.038-1.056.213-.402.349-.555.87-.44 1.352.133.618.594 1.06 1.187 1.236.884.21 1.805-.06 2.36-.812.23-.252.288-.522.423-.83.92.561 1.61 1.545 1.975 2.547 0 .329.096.676.018.966l.67.058c-.055-.155 0-.328.06-.463.25-1.273 1.035-2.336 1.975-3.165.326-.193.25.25.326.385.288.733.96 1.254 1.669 1.467.805.135 1.572-.056 2.07-.675.249-.464.558-1.14.135-1.622-.269-.328-.633-.5-1.055-.5-.498 0-.804.345-1.054.713 0 .153-.02.326.114.405.077 0 .23.02.288-.096.039-.29.288-.426.518-.58.212-.115.441 0 .613.116.212.173.25.464.27.752-.04.369-.288.753-.634.91-.556.289-1.362.154-1.84-.176-.231-.25-.365-.54-.538-.85-.038-.307-.154-.576 0-.887.843-.502 1.727-.868 2.742-.965.402.076.748.346 1.017.636.883.909-.192 2.201.421 3.206.23-.04.23-.347.328-.54.287-.696-.078-1.45-.25-2.126-.231-.424-.364-.789-.729-1.138.096-.038.134-.038.23-.038.403.27.844.579 1.17 1.003.556.908.845 1.989.748 3.168-.153.579-.768.849-1.247 1.06-.192.156-.422.387-.517.618.23.135.555 0 .785-.096.364-.135.576-.6.826-.812.038.02.02.079.038.117.018.213-.096.502.095.56.096-.27.117-.657.173-.985.25.27.287.618.364.965.173.348.461.81.92.87.115-.174-.018-.349-.056-.502-.058-.485-.46-.735-.73-1.083-.67-.926-.364-2.373-.882-3.415-.19-.56-.594-.967-1.036-1.43l.077-.076c.94-.02 1.727.29 2.59.463 1.054.521 2.59.405 3.088 1.777.21.77.556 1.484 1.092 2.083l.058-.038a.783.783 0 0 0 0-.713c-.115-.967-.959-1.197-1.4-2.01l.057-.075c.461.135.94.248 1.4.443 1.535.424 2.608 1.93 2.801 3.495 0 1.233-.231 2.257-.71 3.3-.058.155-.326.328-.154.463.211-.154.25-.405.366-.58.632-1.06.957-2.527.632-3.879-.02-.25-.307-.444-.173-.695.096.116.212.135.327.175.115-.078.287-.078.364-.214.018-.115.095-.25 0-.347-.116-.173-.364-.173-.556-.134-.096.114-.21.269-.231.423-.191-.328-.384-.752-.691-1.022l.04-.058c.863.288 1.648.715 2.531.945.192.116.402.213.672.213.747.289 1.572.405 2.358.599.575-.059 1.054.212 1.63.077v-.038l-.019.018c-.21-.27-.67-.018-.921-.212-1.323-.136-2.589-.484-3.777-.945.018-.059.095-.04.153-.04.19-.096.325-.27.306-.482a.518.518 0 0 0-.44-.213c-.116.057-.269.192-.288.328.02.155.153.33.287.368-.038.039-.115.018-.172.018-.594-.271-1.17-.522-1.746-.79-.21-.04-.383-.214-.595-.251-.44-.212-.882-.426-1.323-.598-1.226-.64-2.589-.986-3.891-1.45-.288-.077-.557-.155-.827-.23-.479-.136-.958-.251-1.438-.387-1.63-.406-3.816-.443-5.235.444-.23-.077-.364.288-.48.058.403-1.062 1.573-1.409 2.628-1.447 7.69-.079 14.901-.136 22.476-.253.884 0 1.746-.308 2.206-1.099.326-.463.383-1.255.134-1.776" fill="#FEFEFE" mask="url(#b)"/>
            <path d="M80.884 31.989c0 .057.115.075.077.172-.67.6-1.61.773-2.57.811-.077.02-.154.078-.249.058-.057-.039-.076-.096-.038-.135.69-.752 1.744-1.139 2.78-.906M77.797 32.297c.076.27-.096.424-.307.52-.211-.018-.325-.153-.422-.309-.057-.152.077-.23.135-.327.152-.154.517-.154.594.116M41.34 32.336c.037.135.019.308-.096.406-.076.095-.25.113-.346.095-.134-.02-.21-.173-.248-.29 0-.173.095-.27.248-.367.154 0 .326-.018.442.156M37.907 33.59v.136c-.46.097-.9-.02-1.247-.29-.268-.386-.575-.772-1.016-.965 0-.058-.116-.135 0-.174.958 0 1.535.773 2.263 1.292M83.799 32.316c-.441.656-.825 1.466-1.61 1.758-.135 0-.25.192-.365.057.308-.735.96-1.524 1.707-1.835.077 0 .191-.018.268.02M42.453 32.548c.018.213-.136.25-.27.367-.153.019-.23-.097-.326-.213-.076-.193.096-.27.191-.366.155-.039.328.077.405.212M86.216 32.664c-.172.25-.095.618-.268.888-.385.443-.71.946-1.324 1.04-.096-.191.133-.385.23-.558.269-.579.653-1.235 1.267-1.486l.095.116zM31.962 32.837c.057.135.115.27 0 .425a.45.45 0 0 1-.441.076.358.358 0 0 1-.154-.461c.116-.175.46-.27.595-.04M30.87 33.07c.018.096.075.172.055.268-.056.099-.151.214-.267.234-.212.038-.345-.078-.44-.253-.021-.173.037-.328.19-.404.172-.078.366.02.461.154M33.13 33.185c.04.154.078.425-.153.463-.268.116-.421-.077-.575-.231 0-.174.096-.31.23-.387.192-.019.366 0 .499.155M36.276 33.436c-.019.135.02.329-.134.368-.096.096-.269.057-.364.038-.038-.116-.25-.213-.134-.348a.697.697 0 0 1 .27-.212c.114.056.287 0 .362.154M88.056 33.571c-.057.136-.134.31-.287.31-.172-.02-.345-.04-.44-.214-.077-.211.095-.329.248-.385.192 0 .442.077.48.29M84.548 33.666c.019.157-.153.273-.231.33-.267.116-.498-.079-.595-.29a.496.496 0 0 1 .328-.348c.248-.02.383.116.498.308M86.925 33.628a.404.404 0 0 1-.172.33c-.153.056-.346.038-.46-.078-.172-.154-.04-.29.076-.406.173-.096.498-.078.556.154M31.463 33.958c.039.21-.038.404-.23.482-.173 0-.364-.099-.422-.272-.019-.172.037-.345.192-.404.191-.057.346.059.46.194M83.59 34.169c.056.213-.059.406-.27.502-.153.04-.25-.038-.364-.135-.077-.096-.173-.308-.02-.405.154-.29.538-.173.653.038M41.781 34.382c.076.21-.154.25-.21.367-.078.038-.231.058-.289-.021-.096-.116-.21-.23-.154-.405.096-.076.135-.154.25-.192.21-.057.288.135.403.25M87.712 34.517c.038.135-.076.193-.095.29a.52.52 0 0 1-.442.077c-.174-.097-.174-.251-.174-.426.116-.076.135-.173.27-.211.171 0 .383.076.44.27M86.523 34.575c.076.231-.135.347-.288.405-.077.019-.191-.039-.21.077.498.252.804.657 1.188 1.023v.155c-.69-.02-1.4-.194-1.9-.733-.133-.098-.362-.098-.516-.232.249-.25.71-.156 1.054-.174.249-.27-.287-.463.04-.695.114-.02.19-.135.344-.097.134.058.21.154.288.271M78.679 34.593c.038.097-.076.213-.095.31a.383.383 0 0 1-.423.077c-.095-.135-.249-.252-.191-.444.153-.289.65-.233.709.057M35.797 35.27c-.057.173-.135.288-.326.309-.154-.021-.287-.076-.345-.233-.02-.134.077-.212.096-.308.212-.174.595-.058.575.231M37.35 35.02c0 .267-.288.424-.383.694-.289.637-.805 1.216-1.533 1.274-.077-.175.249-.387.325-.558.307-.659.92-1.005 1.477-1.41h.115zM78.219 35.287c.018.215-.174.369-.328.446-.172.059-.306-.077-.4-.154-.154-.154-.06-.31.018-.465.23-.23.556-.037.71.173M79.408 35.425a.479.479 0 0 1-.346.424c-.037-.057-.134-.02-.19-.039-.135-.077-.252-.193-.252-.348.096-.097.135-.25.27-.27.172-.018.46 0 .518.233M40.323 35.403c.02.213-.133.33-.287.408-.173.02-.287-.097-.364-.232-.04-.176.133-.291.23-.386.23-.08.288.095.42.21M41.647 35.482a.46.46 0 0 1-.365.33c-.134-.04-.288-.08-.344-.233-.019-.194.134-.292.267-.387.192 0 .403.078.442.29M83.531 36.833c.095.077.268.174.23.308-.306.137-.555-.211-.843-.269-.46-.464-.805-.965-.998-1.545.173-.173.365.039.518.097.44.368.863.849 1.093 1.41M84.24 35.482a.48.48 0 0 1-.037.425c-.116.193-.366.154-.537.116-.097-.116-.269-.27-.153-.444.056-.155.229-.194.364-.252.133-.018.23.097.363.155M43.41 35.984c.02.154.06.386-.133.482-.173.039-.402-.017-.46-.231-.096-.232.114-.27.23-.386.153-.038.248.038.364.135M79.35 37.239c.27.385.46.868.499 1.371-.059.135.096.27-.02.365h-.076c-.863-.617-1.056-1.487-1.38-2.353-.078-.038-.097-.117-.078-.193.191-.175.326.172.518.23l.537.58zM45.904 36.583c-.02.019 0 .038.02.038-.767.54-1.842.868-2.723.347-.02-.057.018-.155.094-.174.558-.173 1.094-.443 1.689-.365l.92.154zM41.53 36.678c-.65.405-1.245 1.197-2.05 1.391-.154.057-.25.27-.442.155.346-1.043 1.477-1.603 2.493-1.7v.154zM78.219 37.547c.056.156 0 .368-.154.406-.096.096-.287.096-.364 0-.172-.078-.172-.25-.172-.386.056-.135.19-.154.287-.214.173.04.308.04.403.194M76.628 37.645c-.116.27-.441.425-.691.5-.652.233-1.247-.075-1.822-.23.018-.156.21-.097.307-.194.632-.134 1.283-.27 1.955-.097.058-.037.192-.057.25.02M41.53 38.204c-.055.076-.075.25-.23.308-.133.059-.267 0-.381-.077-.04-.115-.174-.211-.078-.348.039-.133.192-.172.307-.212.191.02.345.136.383.33M42.663 38.377c-.057.116-.114.291-.27.368-.153.039-.267-.04-.382-.135-.058-.117-.116-.252-.058-.387.039-.096.173-.116.269-.174.191-.02.364.174.441.328M77.854 38.57c.02.156-.057.25-.135.369-.094.135-.287.152-.42.076-.135-.019-.174-.174-.23-.27-.116-.154.076-.251.133-.386.211-.174.557-.08.652.211M78.698 38.532c.02.097.077.194.039.27-.116.097-.193.347-.423.25-.114.04-.172-.113-.23-.153-.076-.194-.018-.483.23-.522.173-.056.289.097.384.155M41.973 39.092a.523.523 0 0 1-.192.52c-.211.04-.48.04-.557-.211-.018-.193 0-.444.231-.56.192-.02.422.02.518.25M43.065 39.015c-.037.54-.153 1.196-.69 1.507-.306.056-.614.346-.92.153v-.097c.402-.58 1.131-1.023 1.61-1.563M74.844 39.458c.076.116-.057.213-.116.309-.113.135-.325.077-.46.02-.135-.058-.153-.251-.096-.386.038-.116.154-.173.25-.213.173-.02.326.137.422.27M44.984 40.346c.267.443.115 1.043.267 1.526-.325.038-.46-.33-.67-.52-.422-.58-.365-1.354-.556-2.027a.1.1 0 0 1 .134-.04c.288.193.499.559.729.81-.04.136.114.136.096.251M75.802 39.613c0 .155-.173.193-.268.29a.706.706 0 0 1-.364-.174c-.059-.193.095-.251.19-.347.193-.078.385.02.442.231M78.084 41.332c0 .057-.018.173-.114.135h-.078c-.555-.502-1.112-1.061-1.035-1.835l.115-.02c.518.445 1.094.928 1.112 1.72M76.646 40.713c.02.155-.077.27-.173.368-.21.057-.536.038-.575-.252-.018-.193.191-.29.289-.385.229-.058.382.096.46.269M75.38 41.119c-.269.713-.997 1.08-1.496 1.62-.096-.056-.057-.21-.038-.289.193-.732.768-1.447 1.476-1.737.307.039 0 .251.059.406M76.819 41.697c0 .175-.173.25-.27.348-.153-.018-.305-.058-.42-.213-.02-.192.133-.25.248-.346a.396.396 0 0 1 .442.211M62.575 6.81h-.212c-.556 0-.084.706.215.706.37 0 .395-.706-.003-.706zm-1.717.706c.555 0 .03-.706-.269-.706h-.556c-.555 0-.03.706.269.706h.556zm-2.33 0c.555 0 .03-.706-.27-.706h-.554c-.556 0-.03.706.268.706h.555zm4.02-.865c.263 0 .475.225.475.5 0 .278-.212.5-.474.5H56.86a.486.486 0 0 1-.473-.5c0-.275.212-.5.473-.5h5.688zM62.588 15.463c0 .25.338.083.587.083.25 0 .588.167.588-.083 0-.357-.338-.233-.588-.233-.25 0-.587-.124-.587.233zm1.065.593c.245 0 .266-.337.266-.627 0-.659-.522 0-.789-.62-.196.523-.73.04-.73.6 0 .388-.003.647.38.647h.873zm-1.603-2.884 1.087.417 1.068-.417-.423 1.598.847-.175-.289.97.289.93-.75-.205.326 1.724-1.068-.415-1.087.415.442-1.724-.866.242.231-.968-.231-.93.828.136-.404-1.598zM59.506 15.524v-.202l-.182-.037.143-.147-.088-.163.185.02.114-.2.11.197.19-.017-.09.163.144.147-.182.037v.202l-.172-.129zM58.663 16.609v-.202l-.182-.036.143-.148-.088-.163.185.02.114-.199.11.196.19-.017-.09.163.143.148-.181.036v.202l-.172-.129zM60.094 16.47v-.203l-.181-.033.141-.148-.087-.166.187.022.112-.198.11.195.19-.019-.088.166.142.148-.182.033v.203l-.172-.127zM60.263 17.282v-.115l-.103-.02.08-.082-.05-.094.106.012.064-.113.063.11.106-.01-.05.095.08.082-.102.02v.115l-.097-.073zM58.934 18.209v-.347l-.313-.059.246-.255-.152-.279.32.034.194-.34.19.335.324-.029-.153.28.244.254-.31.059v.347l-.295-.22zM59.611 0l.675 1.66 1.71-.503-.868 1.567 1.458 1.032-1.758.293.107 1.791-1.324-1.2-1.325 1.2.108-1.791-1.758-.293 1.457-1.032-.868-1.568 1.71.503zM53.423 37.227c-.202.076-.282.133-.233.343l.242 1.016c.045.19.058.488-.067.667-.15.22-.468.359-.696.414-.166.04-.53.107-.82-.016-.192-.081-.316-.17-.398-.513l-.253-1.067c-.063-.268-.162-.25-.38-.218l-.02-.08 1.286-.307.02.078c-.249.07-.367.102-.3.381l.252 1.067c.042.181.147.622.695.491.67-.162.56-.65.514-.856l-.23-.972c-.047-.195-.118-.293-.449-.226l-.02-.081.839-.201.018.08zM55.328 37.44c-.116-.208-.428-.525-.878-.424-.199.044-.387.186-.341.395.038.172.126.226.477.289l.612.11c.141.025.473.146.55.495.062.282-.097.724-.8.88-.362.08-.56.01-.677.036-.081.018-.087.081-.09.135l-.111.024-.174-.79.11-.025c.148.306.45.618.934.511.459-.101.408-.424.398-.467-.046-.212-.243-.248-.514-.292l-.277-.047c-.71-.117-.772-.392-.804-.54-.044-.195-.021-.657.704-.817.306-.07.508-.004.62-.028.087-.02.096-.072.101-.137l.115-.025.153.695-.108.022zM57.86 38.704l-1.391.133-.007-.08c.281-.048.374-.062.349-.338l-.164-1.72c-.271.039-.67.093-.7.624l-.113.01-.05-.657 2.338-.225.07.655-.113.013c-.129-.516-.53-.495-.8-.48l.163 1.722c.027.276.12.274.41.261l.007.082zM59.418 37.54c.512.006.717-.063.725-.488.006-.332-.15-.478-.463-.482-.216-.004-.225.031-.245.133l-.017.836zm1.694 1.164-.802-.015-.788-1.043h-.106l-.014.642c-.005.263.081.273.34.31l-.002.08-1.32-.027v-.082c.266-.02.345-.028.35-.294l.028-1.45c.005-.283-.115-.292-.338-.309l.003-.081 1.258.024c.274.004 1.1.047 1.09.6-.007.403-.412.498-.625.547l.769.951c.054.06.112.065.158.065l-.001.082z" fill="#FEFEFE" mask="url(#b)"/>
            <path d="m62.59 38.118-.293-.84-.463.746.757.094zm1.088.916-1.257-.158.011-.08c.242.012.312.019.325-.087.011-.091-.083-.346-.124-.456l-.874-.112c-.137.222-.215.348-.222.4-.015.123.17.157.301.18l-.01.08-.788-.097.01-.082c.212 0 .28-.103.427-.333l1.083-1.676.109.014.653 1.82c.13.37.18.49.367.506l-.011.081zM65.956 39.498l-2.225-.407.015-.082c.22.017.336.028.372-.17l.284-1.562c.038-.213-.117-.248-.29-.288l.016-.081 1.342.247-.014.08c-.272-.04-.392-.058-.443.225l-.277 1.523c-.028.156.052.198.31.245.581.107.846-.122 1.09-.454l.11.02-.29.704zM67.431 39.828l-1.34-.282.018-.08c.21.027.361.047.402-.154l.322-1.553c.044-.212-.135-.255-.309-.302l.017-.082 1.34.282-.017.08c-.182-.031-.366-.065-.411.153l-.321 1.554c-.043.205.109.246.316.304l-.017.08zM69.043 39.283l-.312-.833-.447.754.759.079zm1.108.892-1.26-.13.008-.08c.243.008.313.013.324-.095.009-.09-.09-.344-.135-.454l-.875-.091c-.134.225-.21.352-.215.404-.013.123.174.154.305.172l-.008.082-.79-.082.009-.08c.212-.005.278-.11.42-.343l1.046-1.698.11.01.692 1.806c.139.369.19.485.378.5l-.01.08zM59.468 13.854c-.23 0-.541.158-.541-.115 0-.387.262-.3.493-.3.23 0 .586-.087.586.3 0 .273-.31.115-.538.115m.682-.152c0-.789-.441-.05-.686-.72-.18.567-.711.09-.711.7 0 .233.06.367.174.443v.232c0 .06.046.109.108.109h.837c.06 0 .11-.049.11-.11v-.252a.517.517 0 0 0 .168-.402M67.012 23.375c.201 0 .362-.142.362-.318 0-.176-.16-.32-.362-.32-.2 0-.361.144-.361.32 0 .176.161.318.361.318M65.313 11.7s-.17.286-.17.339c0 .103.078.19.172.19.095 0 .172-.087.172-.19 0-.006-.174-.338-.174-.338M53.73 11.7s-.17.286-.17.339c0 .103.076.19.171.19.097 0 .173-.087.173-.19 0-.006-.175-.338-.175-.338M56.625 11.7s-.17.286-.17.339c0 .103.077.19.172.19.095 0 .172-.087.172-.19 0-.006-.174-.338-.174-.338M59.52 11.7s-.168.286-.168.339c0 .103.076.19.17.19.096 0 .174-.087.174-.19 0-.006-.176-.338-.176-.338M62.416 11.7s-.169.286-.169.339c0 .103.078.19.172.19.095 0 .172-.087.172-.19 0-.006-.175-.338-.175-.338M53.734 15.674s.17.286.17.339c0 .105-.077.188-.172.188-.096 0-.173-.083-.173-.188 0-.005.175-.34.175-.34M53.734 19.535s.17.286.17.338c0 .104-.077.19-.172.19-.096 0-.173-.086-.173-.19 0-.004.175-.338.175-.338M54.198 22.592s.17.285.17.337c0 .105-.078.19-.173.19-.095 0-.172-.085-.172-.19 0-.003.175-.337.175-.337M56.627 24.215s.17.288.17.34c0 .104-.077.189-.171.189-.096 0-.175-.085-.175-.19 0-.005.176-.339.176-.339M65.46 15.674s-.17.286-.17.339c0 .105.078.188.172.188.094 0 .172-.083.172-.188 0-.005-.174-.34-.174-.34M65.46 19.535s-.17.286-.17.338c0 .104.078.19.172.19.094 0 .172-.086.172-.19 0-.004-.174-.338-.174-.338M64.996 22.592s-.17.285-.17.337c0 .105.077.19.172.19.096 0 .173-.085.173-.19 0-.003-.175-.337-.175-.337M62.567 24.215s-.17.288-.17.34c0 .104.078.189.172.189.095 0 .173-.085.173-.19 0-.005-.175-.339-.175-.339M59.61 25.937s-.169.286-.169.34c0 .104.077.188.172.188.094 0 .171-.084.171-.188 0-.006-.174-.34-.174-.34M64.322 20.179c.037.055.129.072.242.032l.11-.311c.01-.022-.126-.145-.206-.125-.31.073-.638.11-.82.404 0 .202.146.383.291.475.11-.035.129.075.201.13.019.092-.036.165-.127.165-.219-.22-.601.073-.765-.203.073-.274.218-.588-.019-.843.02-.055.11-.109.056-.164-.092-.258-.365-.055-.53-.055-.272-.038-.492.11-.655.33.017.09.054.183.145.275.074-.018.11 0 .129.072l-.184.11c.055.056.055.13.073.203-.127.055-.254-.129-.309-.22 0-.148.019-.405-.183-.44-.036 0-.157.052-.157.052-.045.057-.075.171-.075.304 0 .13.071.327.071.327s.563.416.69.674c-.164.33-.164.787-.547.97-.11.074-.11.185-.11.294l.092.075c.238-.13.693-.167.657-.57.09-.164.18-.348.345-.477a.378.378 0 0 1 .418.203.715.715 0 0 1-.49.549c-.037.037-.019.092-.019.148.074.128.274.072.383.055.31-.203.437-.57.71-.679.037.183-.364.239-.109.421.164-.036.383.019.492-.202-.127-.31.437-.458.09-.733 0-.275.293-.384.274-.679-.109-.292-.455-.292-.547-.567.11-.075.274-.056.383 0M51.016 23.517c.198 0 .36-.144.36-.32 0-.176-.162-.318-.36-.318-.202 0-.363.142-.363.318 0 .176.161.32.363.32M32.233 34.481a.349.349 0 0 0 .356-.341.349.349 0 0 0-.356-.34.349.349 0 0 0-.356.34c0 .188.16.341.356.341M44.236 37.1a.023.023 0 0 0-.022-.02c-.006 0-.012.003-.012.01 0 .006.003.007.012.01l.017.009a.018.018 0 0 1 .012.016c0 .011-.007.022-.03.022-.009 0-.014-.005-.018-.005-.003 0-.003.003-.004.005h-.003v-.024h.003c.003.009.01.02.024.02s.015-.01.015-.01c0-.008-.006-.01-.013-.011l-.008-.002c-.019-.01-.019-.02-.019-.024s.002-.018.024-.018c.01 0 .015.003.018.003.004 0 .004-.002.004-.003h.004v.022h-.004zM44.357 37.083c-.003 0-.007 0-.008.005l-.022.058h-.004l-.019-.045-.022.045h-.002l-.025-.058c-.002-.005-.004-.005-.008-.005v-.004h.034v.004c-.004 0-.007 0-.007.004v.002l.014.034.014-.028-.005-.01c-.002-.002-.002-.002-.007-.002v-.004h.036v.004c-.006 0-.01 0-.01.003l.002.006.013.031.012-.033.001-.003c0-.004-.004-.004-.009-.004v-.004h.022v.004zM44.426 37.1c.01 0 .017 0 .024.005.006.002.012.008.012.018 0 .013-.012.022-.033.022-.007 0-.016-.004-.016-.009 0-.002.003-.005.008-.005.006 0 .014.008.021.008.003 0 .011-.003.011-.01 0-.006-.005-.01-.012-.012-.007-.003-.016-.003-.024-.004l.01-.034h.038l-.007.013h-.03l-.002.008z" fill="#FEFEFE" mask="url(#b)"/>
            <path d="M65.898 21.585c-.07.774-.333 1.417-.868 1.78l-5.038 3.202h-.028a.624.624 0 0 1-.782-.005l-5.03-3.198c-.534-.362-.797-1.005-.868-1.779v-9.984h12.614v9.984zm.376-10.343v-.008H52.91v.008h-.002l.01 10.208c0 1.041.442 1.95 1.05 2.23l5.142 3.263a.62.62 0 0 0 .886.048l5.22-3.31c.61-.28 1.05-1.19 1.05-2.23l.012-10.21h-.003z" fill="#FEFEFE" mask="url(#b)"/>
            <path d="m61.391 26.119.162-.076a.788.788 0 0 0-.162.076M50.036 39.441l-.484-.746-.274.834.758-.088zm1.273.631-1.26.146-.01-.081c.241-.043.311-.055.297-.163-.008-.089-.162-.316-.228-.413l-.875.102c-.08.247-.127.387-.122.44.014.124.202.113.335.104l.009.08-.79.09-.008-.08c.208-.05.249-.167.337-.425l.658-1.886.109-.011 1.063 1.612c.216.328.29.432.477.405l.008.08z" fill="#FEFEFE" mask="url(#b)"/>
            <path d="M72.944 36.023c-.172.347-.441.599-.824.655.019-.463.441-.791.288-1.312-.25-.367-.748-.482-1.208-.386-.173.117-.096.307-.153.482l-.077.638c-.385 0-.403-.347-.518-.618.018-.406.191-.81.595-1.005.306-.154.805-.135 1.111.04.25.058.539.174.633.405.288.27.212.754.153 1.101zm-1.554.192c.212-.213-.056-1.428.539-.636 0 .153.02.386-.134.501-.098.078-.25.234-.405.135zm.212.484c.019.308-.268.23-.421.346h-.461c-.096-.153-.056-.386-.056-.54.306.057.65.057.938.194zm.537 2.354c-.153.193-.019.503-.21.676 0 .347-.289.52-.539.658-2.281.5-4.525-.273-6.73-.658-3.087-.676-6.692-.868-9.839-.155-1.476.27-2.914.618-4.333 1.023-.882.116-1.84.25-2.685-.018-.691-.33-.404-1.216-.614-1.834.039-.483-.134-.87-.154-1.332a1.162 1.162 0 0 1-.077-.503c.288.038.577.252.883.329 1.61.308 3.05-.213 4.545-.482 1.438-.308 2.915-.561 4.43-.677 1.726-.02 3.49-.115 5.14.174.536.019.997.154 1.514.195 1.075.135 2.072.423 3.166.499.172.06.383.06.574.097 1.726.27 3.662.755 5.312 0 0 .695-.286 1.333-.383 2.008zm-9.741 1.41c.094.27.268.521.172.85-.192.365-.576.365-.92.444a.607.607 0 0 1-.442-.136c.02-.078-.02-.134-.077-.194.058-.25-.44-.502-.096-.714.307-.29 1.035-.946 1.363-.25zm.421.077c.23.057.249.308.268.501-.019.426-.248.791-.652.946-.21.117-.537.156-.748.078.46-.02.96-.193 1.152-.656l-.02-.869zm.499 2.568c-.038.018-.038.057-.038.076-.557.02-.922-.309-1.343-.598l-.02-.097c.518.04.94.367 1.4.619zm-.71 1.775c-.02.058-.116.058-.153.02-.575-.734-.845-1.507-1.209-2.317l.078-.019c.46.753.824 1.583 1.284 2.316zm-.959-.464-.096.04c-.096-.077-.057-.29-.038-.406.115.097.211.232.134.366zm-.537-1.158c.02.193.212.27.096.445-.039-.078-.153-.252-.096-.445zm-1.227 1.565c-.365.02-.92.231-1.266-.08.02-.153-.154-.23-.134-.384.307-.117.575.25.862-.02.442.02.902-.057 1.343.04.211.057.538-.348.576.057-.154.637-.92.193-1.381.387zm-.844-2.298.096-.154a8.188 8.188 0 0 1-.633 1.39c-.116-.464.364-.832.537-1.236zm.537-.366c.25-.27.48.153.575.366.289.425 1.036.81.748 1.39-.364.327-.94.018-1.342.27-.212-.02-.576.04-.69-.173.21-.619.402-1.313.709-1.853zm-.058-.735h-.076l.115-.114c.058.039-.02.076-.039.114zm.44.04c.077-.115.175-.29.308-.29 0 .02.019.04.038.058-.115.097-.21.192-.346.232zm.27.29c.038-.04.135-.04.173 0h-.172zm.518.597c-.019.04.018.096-.04.135l-.44-.346c.211-.04.365.057.48.211zm.767-2.375c-.231.078-.403.348-.632.408.114-.214.4-.426.632-.408zm-.96-.25c-.038-.173.174-.038.25-.116l.595.038c-.307-.038-.691.676-.845.078zm-1.398.542c.095-.272.114-.504.287-.715.191 0 .364 0 .516.076.04.387.52.908 0 1.235-.171.08-.42.252-.613.08-.248-.215-.287-.407-.19-.676zm-.289 1.196c-.02-.078.038-.174.059-.27.095-.097.19.077.23.135a.29.29 0 0 1-.289.135zm-.039-.888h.02v-.213h-.02v.213zm-.21-.58c-.25-.058-.384-.348-.651-.348.229-.077.46-.057.727-.019.097.135-.056.252-.076.367zm-.211 1.563c.057-.25.173-.578.307-.81-.02.25-.134.6-.307.81zm-.42 0a4.616 4.616 0 0 1-.922-.23c-.193-.194 0-.407 0-.62.268-.423 1.035-.636 1.4-.25-.058.425-.212.792-.479 1.1zm-.308 1.643c-.27.616-.576 1.214-.94 1.813-.038.097-.193.116-.308.135 0-.27.27-.483.384-.714.403-.521.518-1.08.978-1.583.115.116-.114.193-.114.349zm-1.823-.195c.462-.192.94-.597 1.458-.424-.365.29-.96.405-1.458.424zm.69-1.332c-.095-.676.174-1.255.615-1.737.267-.057.575-.115.825.038-.5.135-1.132.252-1.248.888.02.252-.058.387.058.6.212.365.69.21.96.502 0 .096-.077.211-.173.23-.327-.192-.729-.27-1.037-.521zm-8.994-6.196c.058-.155 0-.385.21-.425.135-.038.347-.038.365.117-.018.23-.038.462-.095.675-.27.018-.403-.135-.48-.367zm.058.648c.287.213.69.116 1.036.175.058.21.058.48-.096.656-.327-.078-.748-.039-.921-.347.039-.136-.058-.328-.019-.484zm-.901-.551c.057-.348.134-.714.46-.967.46-.25 1.093-.192 1.515.06.134.077.23.193.308.367.095.327-.06.675-.288.868h-.193c0-.31 0-.62.116-.868-.02-.233-.211-.252-.365-.348-.326-.098-.615.058-.864.193-.19.23-.364.52-.248.848.134.213.02.503.095.734l-.057.077c-.23-.25-.538-.52-.48-.964zm17.994 8.206c.458.205 1.38.407 2.046.483-.06.262-.528.017-.474.384-.595-.23-1.283-.347-1.726-.81.038-.02.077-.077.154-.057zm-11.973.308-.268-.252c.134-.175.422-.078.633-.193.498-.155 1.074-.348 1.629-.231-.574.463-1.322.52-1.994.676zm20.713-8.806c-.23-.596-.71-1.002-1.305-1.195-.613-.134-1.267-.039-1.669.425-.69.56-.21 1.485-.191 2.24 0 .153.02.269-.134.347-2.781-.251-5.37-.946-8.131-1.237-.636-.109-1.272-.08-1.875-.208l-.772-.08c-2.397.077-4.796.213-7.04.79-.477.155-1.016.193-1.495.368-.344-.06-.632.193-.959.096l-.63.147a.507.507 0 0 1-.213-.011c-.306-.791.613-1.275.325-2.047-.248-.445-.747-.869-1.322-.791-.652-.078-1.227.29-1.534.79-.441.966.114 1.97.287 2.916-.04.308.306.656 0 .908-.614-.425-1.42-.658-2.166-.446-.23.116-.653-.037-.767.233.824.443 1.88.386 2.798.348.116-.04.193-.06.289.019.077.502-.096 1.177.21 1.623.346.462.921.578 1.478.636 1.764-.058 3.335-.58 4.947-.985.25-.019.442-.154.71-.154.863-.193 1.803-.348 2.724-.368-.404.522-.634 1.1-.807 1.738-.23.521.403.598.595.889-.595.172-1.017.578-1.572.81-1.228-.039-2.264.425-3.415.56-.018.25.403.173.442.423-.058.174-.23.195-.365.291-.019.115 0 .135.115.155.115-.135.365-.04.48-.175.383 0 .71-.114 1.073-.134.328-.137.691-.155.98-.387.402-.115.652-.386 1.054-.5.574 0 1.092-.195 1.63-.233v.117c-.442.713-.9 1.447-1.362 2.122-.077.135.02.27.134.31.27.077.536 0 .748-.116.404-.695.767-1.352 1.094-2.067.135-.656.613-1.004 1.094-1.447.075-.038.19-.155.267-.038-.383.444-.633.868-.92 1.351-.154.54-.193 1.236.287 1.679.23.193.576.135.883.154.747-.385 1.706.231 2.282-.501.344-.059.402.347.594.54.326.096.671.425.998.192-.02-.21-.25-.405-.365-.597-.23-.405-.518-.734-.728-1.1-.097-.27-.27-.444-.309-.715.346.116.654.348 1.037.406.327.135.73.115 1.035.309.251.328.634.52.96.732.478.233 1.016.272 1.514.464.193.02.481.174.614 0a.832.832 0 0 0-.286-.213c-.059-.25.344-.114.478-.308-.046-.094-.131-.134-.222-.147-.275-.146-.958-.199-1.14-.297-.229-.038-.44-.135-.67-.212-1.15 0-1.784-1.043-2.704-1.428.21-.194.536-.348.671-.638.172-.27.23-.715.057-1.023-.173-.598-.94-.521-1.38-.85l.057-.058c.747-.038 1.4.135 2.072.27 1.84.252 3.547.946 5.465.986 1.055 0 2.378.057 2.895-.966.096-.598.21-1.198.307-1.794.23-.966.863-1.854.768-2.918zM4.976 58.927l-1.254-2.896-1.29 2.896h2.544zm.21.458h-2.97l-.355.82c-.115.272-.174.497-.174.675 0 .234.096.41.286.52.111.066.387.116.825.15v.229H0v-.23c.302-.045.55-.17.745-.375.194-.205.433-.627.719-1.268l3.009-6.708h.118l3.034 6.894c.288.654.527 1.064.712 1.234.14.129.34.202.596.224v.229h-4.07v-.23h.168c.327 0 .557-.045.688-.137a.33.33 0 0 0 .137-.285.756.756 0 0 0-.037-.229 5.806 5.806 0 0 0-.186-.465l-.447-1.048zM14.598 55.982v4.537c0 .443.04.719.124.829.082.11.25.178.503.206v.224H12.86v-.775c-.278.331-.555.572-.831.722a1.908 1.908 0 0 1-.931.226c-.327 0-.618-.1-.872-.3a1.467 1.467 0 0 1-.511-.703c-.088-.269-.131-.738-.131-1.408v-2.3c0-.438-.04-.71-.121-.819-.08-.106-.249-.177-.505-.21v-.23h2.363v3.962c0 .414.02.68.059.8a.486.486 0 0 0 .481.366c.148 0 .283-.04.403-.118.166-.108.364-.325.596-.651v-3.1c0-.438-.041-.71-.121-.819-.081-.106-.25-.177-.506-.21v-.23h2.364zM19.22 55.82l.092 1.978h-.21c-.253-.587-.514-.988-.786-1.203-.27-.214-.54-.322-.808-.322a.61.61 0 0 0-.435.17.527.527 0 0 0-.18.394c0 .111.042.22.124.322.132.17.502.46 1.11.872.608.41 1.008.76 1.201 1.047a1.7 1.7 0 0 1 .288.964c0 .322-.081.639-.241.949a1.7 1.7 0 0 1-.683.713 1.948 1.948 0 0 1-.974.248c-.277 0-.647-.087-1.111-.26a.925.925 0 0 0-.254-.069c-.136 0-.25.104-.34.31h-.206l-.1-2.083h.212c.186.546.441.955.766 1.227.325.274.632.41.921.41a.672.672 0 0 0 .487-.183.595.595 0 0 0 .19-.444.763.763 0 0 0-.187-.514c-.123-.144-.401-.363-.83-.657-.634-.438-1.043-.773-1.229-1.005a1.741 1.741 0 0 1-.41-1.122c0-.446.154-.85.462-1.212.31-.361.755-.543 1.338-.543.313 0 .618.078.911.23a.616.616 0 0 0 .274.093.32.32 0 0 0 .18-.046c.044-.031.117-.119.216-.264h.211zM22.29 53.862v2.12h1.377v.613h-1.376v3.577c0 .335.015.552.046.648a.474.474 0 0 0 .165.236c.079.06.15.09.217.09.27 0 .523-.204.763-.614l.185.136c-.334.794-.878 1.19-1.63 1.19-.369 0-.68-.101-.934-.306-.255-.204-.417-.433-.487-.686-.041-.14-.062-.52-.062-1.14v-3.131h-.758v-.217a7.96 7.96 0 0 0 1.331-1.16c.367-.404.686-.856.96-1.356h.204zM26.12 55.982v1.314c.383-.599.72-.997 1.01-1.194.29-.196.569-.294.837-.294.233 0 .417.071.556.214.138.142.207.343.207.605 0 .276-.067.491-.2.644a.626.626 0 0 1-.488.229.84.84 0 0 1-.571-.21 3.677 3.677 0 0 0-.285-.236.287.287 0 0 0-.143-.037.523.523 0 0 0-.341.136c-.17.14-.297.34-.384.602-.133.4-.199.843-.199 1.326v1.334l.007.346c0 .237.014.387.043.453a.49.49 0 0 0 .22.244c.097.052.261.085.494.096v.224h-3.134v-.224c.253-.019.423-.09.513-.206.088-.119.133-.43.133-.933V57.21c0-.33-.017-.541-.05-.632a.495.495 0 0 0-.18-.255c-.079-.053-.217-.09-.416-.111v-.23h2.37zM32.044 60.47v-1.94c-.5.294-.872.607-1.117.941-.16.224-.242.45-.242.677 0 .19.07.357.206.502.102.112.247.167.433.167.207 0 .448-.115.72-.347m0 .453c-.707.624-1.341.935-1.905.935-.33 0-.605-.107-.824-.325a1.096 1.096 0 0 1-.33-.816c0-.442.19-.84.571-1.193.381-.352 1.21-.823 2.488-1.41v-.582c0-.438-.023-.715-.071-.828a.673.673 0 0 0-.27-.298.819.819 0 0 0-.447-.127c-.27 0-.49.06-.664.18-.107.074-.16.16-.16.26 0 .086.057.195.173.323.157.177.236.35.236.514a.686.686 0 0 1-.227.518c-.15.143-.348.213-.593.213a.949.949 0 0 1-.654-.235.723.723 0 0 1-.264-.552c0-.297.12-.581.354-.852.236-.27.564-.478.987-.623.422-.145.86-.217 1.315-.217.55 0 .985.117 1.306.35.32.235.528.488.624.76.057.173.086.573.086 1.196v2.25c0 .265.01.432.03.5.021.068.053.12.094.152.04.033.088.05.142.05.109 0 .218-.077.33-.23l.185.15c-.206.305-.42.527-.642.666-.22.138-.473.206-.753.206-.33 0-.59-.076-.776-.232-.185-.154-.3-.389-.34-.703" fill="#FEFEFE" mask="url(#b)"/>
            <path d="M36.958 53.372v7.203c0 .41.047.671.142.785.095.113.281.18.558.194v.224h-3.132v-.224c.256-.007.446-.082.57-.222.083-.095.125-.347.125-.757v-6.001c0-.406-.047-.664-.143-.777-.095-.115-.28-.179-.552-.196v-.23h2.432z" fill="#FEFEFE" mask="url(#b)"/>
            <path d="M39.104 53.173c.27 0 .496.094.682.283.188.188.28.414.28.678 0 .265-.095.49-.283.676a.925.925 0 0 1-.679.278.916.916 0 0 1-.676-.278.919.919 0 0 1-.279-.676c0-.264.093-.49.28-.678a.915.915 0 0 1 .675-.283zm.87 2.809v4.594c0 .41.046.67.142.783.094.115.28.18.558.196v.223h-3.132v-.223c.256-.008.446-.082.57-.223.083-.095.124-.347.124-.756V57.19c0-.408-.048-.67-.143-.784-.095-.113-.279-.179-.551-.195v-.229h2.432zM44.186 60.47v-1.94c-.5.294-.873.607-1.117.941-.161.224-.242.45-.242.677 0 .19.069.357.205.502.103.112.248.167.434.167.206 0 .447-.115.72-.347m0 .453c-.707.624-1.342.935-1.905.935-.33 0-.606-.107-.824-.325a1.096 1.096 0 0 1-.33-.816c0-.442.19-.84.57-1.193.381-.352 1.21-.823 2.489-1.41v-.582c0-.438-.024-.715-.072-.828a.673.673 0 0 0-.269-.298.819.819 0 0 0-.447-.127c-.27 0-.49.06-.664.18-.107.074-.161.16-.161.26 0 .086.058.195.174.323.156.177.235.35.235.514a.686.686 0 0 1-.227.518c-.15.143-.348.213-.592.213a.949.949 0 0 1-.654-.235.723.723 0 0 1-.264-.552c0-.297.119-.581.353-.852.236-.27.565-.478.988-.623.421-.145.86-.217 1.314-.217.55 0 .985.117 1.306.35.32.235.528.488.624.76.058.173.087.573.087 1.196v2.25c0 .265.01.432.03.5.02.068.052.12.093.152.041.033.089.05.143.05.108 0 .217-.077.329-.23l.186.15c-.207.305-.421.527-.643.666-.22.138-.472.206-.752.206-.331 0-.59-.076-.777-.232-.185-.154-.3-.389-.34-.703M49.453 55.982v.75c.297-.322.584-.557.856-.704.273-.147.567-.22.88-.22.378 0 .69.105.938.313.248.209.413.468.496.778.066.236.1.687.1 1.357v2.258c0 .445.04.724.12.834.08.11.25.178.505.206v.224h-2.934v-.224c.22-.028.376-.118.472-.272.066-.103.099-.36.099-.768v-2.579c0-.476-.019-.775-.055-.899a.548.548 0 0 0-.19-.29.476.476 0 0 0-.295-.1c-.355 0-.686.253-.992.761v3.107c0 .434.04.709.12.824.082.116.231.188.45.216v.224H47.09v-.224c.244-.023.419-.102.521-.235.07-.09.106-.36.106-.805V57.24c0-.44-.04-.711-.12-.82-.082-.106-.25-.177-.507-.21v-.23h2.364zM65.154 53.179v2.964h-.23c-.277-.81-.692-1.427-1.247-1.848-.553-.421-1.159-.632-1.816-.632-.63 0-1.153.176-1.57.53-.419.354-.714.847-.888 1.479a7.339 7.339 0 0 0-.26 1.946c0 .806.095 1.513.286 2.12.19.609.496 1.055.92 1.34.424.284.928.428 1.512.428.202 0 .41-.022.622-.065a4.6 4.6 0 0 0 .655-.189v-1.748c0-.331-.023-.545-.069-.642-.045-.098-.139-.185-.282-.264a1.054 1.054 0 0 0-.518-.119h-.217v-.229h4.088v.23c-.31.02-.526.063-.648.127a.646.646 0 0 0-.283.32c-.036.078-.055.27-.055.577v1.748a8.453 8.453 0 0 1-3.487.725c-.798 0-1.46-.109-1.987-.325a4.968 4.968 0 0 1-1.396-.856 4.026 4.026 0 0 1-.946-1.194c-.29-.57-.435-1.21-.435-1.916 0-1.264.444-2.332 1.334-3.205.89-.872 2.007-1.308 3.357-1.308.417 0 .793.033 1.128.1.182.032.476.126.884.282.407.154.649.231.723.231a.489.489 0 0 0 .322-.126c.1-.086.19-.245.274-.481h.23zM68.952 56.249a.718.718 0 0 0-.543.238c-.151.16-.25.473-.298.943-.048.468-.072 1.12-.072 1.955 0 .443.03.855.088 1.24.045.293.142.517.29.67.15.154.32.23.51.23a.7.7 0 0 0 .465-.156c.16-.14.268-.337.323-.59.082-.392.123-1.185.123-2.38 0-.702-.039-1.184-.117-1.448-.078-.262-.195-.453-.348-.573a.655.655 0 0 0-.421-.13m-.025-.44c.504 0 .974.13 1.408.39.434.26.763.63.989 1.11.226.48.338 1.005.338 1.575 0 .822-.21 1.51-.626 2.065-.505.67-1.202 1.003-2.09 1.003-.873 0-1.546-.305-2.017-.916-.472-.613-.706-1.32-.706-2.127 0-.831.24-1.556.722-2.173.481-.618 1.142-.927 1.982-.927M74.653 61.951l-1.954-4.494c-.236-.541-.42-.885-.553-1.029-.095-.108-.234-.179-.421-.217v-.229h3.083v.23c-.194 0-.326.035-.398.104a.426.426 0 0 0-.148.323c0 .154.091.44.273.861l.956 2.177.762-1.88c.22-.537.33-.916.33-1.14a.393.393 0 0 0-.14-.312c-.094-.082-.257-.126-.494-.134v-.229h1.899v.23a.773.773 0 0 0-.448.203c-.114.112-.29.44-.519.986l-1.936 4.55h-.292zM81.267 58.257c0-.666-.036-1.122-.11-1.37-.072-.248-.183-.437-.338-.564a.52.52 0 0 0-.346-.113c-.216 0-.391.106-.528.317-.244.368-.366.872-.366 1.513v.217h1.688zm1.526.416H79.61c.037.768.242 1.375.614 1.822.286.343.629.515 1.03.515.249 0 .474-.07.676-.208.203-.138.42-.387.652-.747l.21.136c-.314.64-.661 1.095-1.042 1.362-.38.266-.82.398-1.321.398-.86 0-1.512-.33-1.954-.992-.356-.532-.534-1.194-.534-1.984 0-.966.262-1.735.785-2.309.523-.571 1.136-.859 1.84-.859.587 0 1.096.242 1.53.723.43.482.664 1.196.697 2.143zM85.417 55.982v1.314c.384-.599.723-.997 1.012-1.194.289-.196.568-.294.836-.294.233 0 .419.071.556.214.14.142.209.343.209.605 0 .276-.067.491-.203.644a.623.623 0 0 1-.486.229.84.84 0 0 1-.572-.21 3.197 3.197 0 0 0-.286-.236.276.276 0 0 0-.141-.037.524.524 0 0 0-.342.136c-.169.14-.297.34-.384.602-.133.4-.199.843-.199 1.326v1.334l.007.346c0 .237.015.387.044.453a.483.483 0 0 0 .22.244c.097.052.261.085.492.096v.224h-3.133v-.224c.253-.019.423-.09.513-.206.088-.119.133-.43.133-.933V57.21c0-.33-.017-.541-.05-.632a.5.5 0 0 0-.18-.255c-.077-.053-.217-.09-.416-.111v-.23h2.37zM90.51 55.982v.75c.298-.322.584-.557.856-.704.275-.147.568-.22.88-.22.379 0 .691.105.939.313.249.209.413.468.496.778.065.236.099.687.099 1.357v2.258c0 .445.04.724.12.834.08.11.25.178.508.206v.224h-2.936v-.224c.22-.028.375-.118.473-.272.066-.103.1-.36.1-.768v-2.579c0-.476-.02-.775-.058-.899a.542.542 0 0 0-.19-.29.473.473 0 0 0-.293-.1c-.357 0-.687.253-.993.761v3.107c0 .434.04.709.12.824.081.116.23.188.45.216v.224h-2.934v-.224c.244-.023.419-.102.523-.235.069-.09.103-.36.103-.805V57.24c0-.44-.04-.711-.12-.82-.08-.106-.25-.177-.506-.21v-.23h2.364zM97.106 55.982v.763c.32-.348.612-.591.882-.73.273-.138.57-.207.893-.207.37 0 .683.087.935.26.253.174.447.438.585.793.33-.37.647-.64.952-.806.302-.164.621-.247.95-.247.402 0 .723.093.959.276.239.184.403.416.496.7.093.284.14.735.14 1.355v2.375c0 .445.04.723.123.83.08.108.248.178.504.21v.224h-2.996v-.224c.236-.019.41-.11.52-.272.075-.111.113-.368.113-.768v-2.492c0-.518-.022-.846-.064-.986a.576.576 0 0 0-.194-.313.494.494 0 0 0-.313-.103.927.927 0 0 0-.54.195c-.182.13-.365.326-.55.586v3.113c0 .417.033.68.104.788.095.152.277.237.545.252v.224h-3.003v-.224a.657.657 0 0 0 .382-.12.525.525 0 0 0 .186-.26c.033-.102.047-.32.047-.66v-2.492c0-.526-.021-.854-.061-.986a.613.613 0 0 0-.21-.31.5.5 0 0 0-.312-.112.818.818 0 0 0-.452.13c-.196.128-.401.346-.62.657v3.113c0 .408.04.678.12.808.08.13.249.209.504.232v.224h-2.988v-.224c.243-.023.416-.102.52-.235.071-.09.106-.36.106-.805V57.24c0-.44-.041-.711-.122-.82-.08-.106-.248-.177-.504-.21v-.23h2.363zM108.16 58.257c0-.666-.036-1.122-.109-1.37-.071-.248-.184-.437-.337-.564a.522.522 0 0 0-.348-.113c-.214 0-.392.106-.527.317-.244.368-.367.872-.367 1.513v.217h1.688zm1.526.416h-3.182c.038.768.242 1.375.614 1.822.286.343.63.515 1.03.515.248 0 .474-.07.677-.208.203-.138.418-.387.65-.747l.211.136c-.314.64-.66 1.095-1.041 1.362a2.254 2.254 0 0 1-1.321.398c-.86 0-1.513-.33-1.954-.992-.357-.532-.534-1.194-.534-1.984 0-.966.261-1.735.785-2.309.522-.571 1.136-.859 1.838-.859.588 0 1.097.242 1.53.723.431.482.664 1.196.697 2.143zM112.273 55.982v.75c.298-.322.585-.557.858-.704.272-.147.565-.22.88-.22.376 0 .689.105.939.313.246.209.41.468.496.778.065.236.098.687.098 1.357v2.258c0 .445.041.724.121.834.08.11.249.178.505.206v.224h-2.933v-.224c.22-.028.375-.118.47-.272.066-.103.1-.36.1-.768v-2.579c0-.476-.02-.775-.056-.899a.554.554 0 0 0-.19-.29.48.48 0 0 0-.295-.1c-.355 0-.687.253-.993.761v3.107c0 .434.043.709.123.824.08.116.23.188.45.216v.224h-2.936v-.224c.245-.023.418-.102.522-.235.07-.09.106-.36.106-.805V57.24c0-.44-.041-.711-.121-.82-.082-.106-.249-.177-.507-.21v-.23h2.363zM118.763 53.862v2.12h1.376v.613h-1.376v3.577c0 .335.015.552.046.648a.474.474 0 0 0 .165.236c.079.06.15.09.217.09.27 0 .525-.204.764-.614l.184.136c-.333.794-.878 1.19-1.629 1.19-.37 0-.68-.101-.934-.306-.255-.204-.418-.433-.488-.686-.042-.14-.06-.52-.06-1.14v-3.131h-.76v-.217a7.96 7.96 0 0 0 1.332-1.16c.367-.404.686-.856.959-1.356h.204z" fill="#FEFEFE" mask="url(#b)"/>
        </g>
        <g filter="url(#c)" transform="translate(.256)">
            <g transform="translate(147.79 .953)">
                <path d="M42.04 53.704a5.052 5.052 0 0 0-6.2-3.566 20.65 20.65 0 0 1-10.793-.008C14.226 47.133 7.864 35.887 10.85 25.066c2.992-10.83 14.242-17.204 25.059-14.209A5.054 5.054 0 0 0 42.13 7.33a5.053 5.053 0 0 0-3.535-6.223C22.403-3.374 5.583 6.164 1.105 22.371c-4.466 16.186 5.04 32.991 21.211 37.494a.172.172 0 0 1 .05.015c.016.01.037.01.066.018a30.664 30.664 0 0 0 16.043.004 5.062 5.062 0 0 0 3.564-6.198" fill="#5E56A5"/>
                <path d="M44.836 15.931a5.057 5.057 0 0 1-.015-7.158 5.033 5.033 0 0 1 7.135-.008 5.045 5.045 0 0 1 .033 7.144c-1.331 1.327-3.192 1.776-4.88 1.327a5.155 5.155 0 0 1-2.273-1.305" fill="#EC7498"/>
                <path d="m50.144 25.049-.006-.005a5.067 5.067 0 0 1 3.544-6.213c2.703-.723 5.48.853 6.215 3.55a5.06 5.06 0 0 1-3.553 6.214 5.09 5.09 0 0 1-2.619.017 5.06 5.06 0 0 1-3.581-3.563" fill="#F06277"/>
                <path d="M50.174 35.583a5.056 5.056 0 1 1 9.776 2.583 5.06 5.06 0 0 1-6.185 3.598 5.065 5.065 0 0 1-3.591-6.18" fill="#FBCE13"/>
                <path d="M44.963 51.887c-1.967-1.972-1.981-5.179-.016-7.157a5.062 5.062 0 0 1 7.162-.017c1.97 1.97 1.97 5.164.013 7.153a5.032 5.032 0 0 1-4.873 1.313 5.177 5.177 0 0 1-2.286-1.292" fill="#0A9AAC"/>
                <path d="M76.114 16.37c0 3.82 2.918 6.745 6.695 6.745 2.568 0 4.416-1.24 5.562-2.725l2.617 2.327c-1.742 2.223-4.663 3.766-8.259 3.766-6.112 0-10.417-4.463-10.417-10.113 0-5.644 4.236-10.112 10.361-10.112 2.925 0 5.423 1.095 7.189 2.808l-2.445 2.585c-1.173-1.18-2.843-2.024-4.774-2.024-3.725 0-6.529 3.009-6.529 6.743M103.063 17.354a4.167 4.167 0 0 0-3.371-1.685c-2.144 0-3.516 1.77-3.516 3.736 0 2.135 1.554 3.706 3.599 3.706 1.373 0 2.593-.673 3.288-1.685v-4.072zm3.652 8.847h-3.509v-1.094c-1.126.952-2.414 1.377-3.8 1.377-2.014 0-3.916-.9-5.14-2.303-1.055-1.237-1.728-2.922-1.728-4.776 0-4.018 2.972-7.108 6.67-7.108 1.56 0 2.926.503 3.998 1.378V12.58h3.509v13.622zM119.22 15.811c-.26-.086-.794-.142-1.324-.142-1.6 0-2.863 1.147-3.318 1.968v8.564h-3.653V12.578h3.512v1.38c.815-1.012 2.302-1.66 3.952-1.66.538 0 .855.055 1.25.113l-.418 3.4zM130.213 17.637c-.106-1.208-1.196-2.39-2.687-2.39-1.511 0-2.753 1.152-2.92 2.39h5.607zm3.413 6.404c-1.318 1.573-3.483 2.443-5.6 2.443-4.07 0-7.126-2.811-7.126-7.079 0-3.79 2.585-7.104 6.626-7.104 3.764 0 6.421 3.172 6.421 6.962 0 .368-.017.729-.073 1.04h-9.437c.2 1.91 1.737 3.23 3.677 3.23 1.549 0 2.785-.868 3.431-1.57l2.081 2.078zM145.33 15.811c-.252-.086-.776-.142-1.325-.142-1.59 0-2.86 1.147-3.304 1.968v8.564h-3.647V12.578h3.498v1.38c.831-1.012 2.309-1.66 3.975-1.66.52 0 .833.055 1.232.113l-.428 3.4zM90.28 49.823c-1.683 2.14-4.599 3.652-7.636 3.652-5.871 0-10.196-4.293-10.196-10.113 0-5.674 4.277-10.11 9.947-10.11 2.813 0 5.466 1.15 7.19 3.036l-1.88 1.852c-1.152-1.266-3.208-2.221-5.31-2.221-4.019 0-7.132 3.205-7.132 7.443 0 4.44 3.208 7.445 7.38 7.445 2.08 0 3.803-.786 4.837-1.822v-5.058h-5.62v-2.67h8.42v8.566zM104.048 44.124c-.822-1.07-2.164-1.885-3.763-1.885-2.555 0-4.245 2.053-4.245 4.354 0 2.363 1.83 4.357 4.393 4.357 1.33 0 2.715-.675 3.615-1.879v-4.947zm.08 7.862c-1.065.957-2.499 1.493-4.072 1.493-1.179 0-2.412-.34-3.316-.872-1.998-1.178-3.37-3.373-3.37-6.014a6.999 6.999 0 0 1 3.4-6.037c.902-.532 1.994-.843 3.236-.843 1.488 0 2.912.443 4.122 1.489v-1.209h2.587v13.203h-2.587v-1.21zM119.638 53.196c-.508.171-1.322.284-2.087.284-1.655 0-2.886-.592-3.733-1.55-.778-.865-1.061-2.076-1.061-3.509v-6.04h-3.36v-2.388h3.36V36.34h2.667v3.653h4.214v2.388h-4.214v6.18c0 .702.053 1.293.398 1.688.366.449 1.116.703 1.815.703.402 0 1.065-.06 1.465-.169l.536 2.413zM124.544 44.907h7.19c-.392-1.683-1.9-2.864-3.481-2.864a3.849 3.849 0 0 0-3.709 2.864zm-.218 2.254a4.244 4.244 0 0 0 4.263 3.986c1.965 0 3.039-.958 3.797-1.797l1.742 1.655c-.981 1.266-2.868 2.474-5.561 2.474-3.847 0-6.825-2.924-6.825-6.885 0-3.958 2.695-6.881 6.43-6.881 3.68 0 6.351 2.974 6.351 6.881 0 .114 0 .312-.033.567h-10.164zM147.772 39.993l3.627 9.017 3.624-9.017h2.753l-5.357 13.203h-1.861l-3.708-9.27-3.704 9.27h-1.848l-5.37-13.203h2.75l3.625 9.017 3.619-9.017zM169.859 44.124c-.82-1.07-2.168-1.885-3.77-1.885-2.559 0-4.239 2.053-4.239 4.354 0 2.363 1.819 4.357 4.387 4.357 1.342 0 2.717-.675 3.622-1.879v-4.947zm.072 7.862c-1.06.957-2.495 1.493-4.066 1.493-1.181 0-2.42-.34-3.315-.872-1.984-1.178-3.366-3.373-3.366-6.014 0-2.637 1.4-4.857 3.397-6.037.893-.532 1.993-.843 3.222-.843 1.499 0 2.932.443 4.128 1.489v-1.209h2.593v13.203h-2.593v-1.21z" fill="#5A5B5C"/>
                <g transform="translate(175.193 39.993)">
                    <mask id="e" fill="#fff">
                        <use xlink:href="#d"/>
                    </mask>
                    <path fill="#5A5B5C" mask="url(#e)" d="m2.072 19.945 3.568-8.12L0 0h2.856l4.13 8.709L10.778 0h2.82L4.91 19.945z"/>
                </g>
                <g transform="translate(0 73.147)">
                    <mask id="g" fill="#fff">
                        <use xlink:href="#f"/>
                    </mask>
                    <path d="m4.733 4.547-.736-2.113c-.054-.14-.114-.366-.216-.673a172.63 172.63 0 0 0-.195-.666c-.086.438-.23.913-.415 1.424l-.699 2.028h2.26zm1.109 3.246-.779-2.155H2.1l-.764 2.155H0L2.909 0h1.375l2.902 7.793H5.842z" fill="#5A5B5C" mask="url(#g)"/>
                </g>
                <path d="M13.25 80.94h-1.262v-3.609c0-.452-.077-.79-.26-1.012-.193-.226-.476-.335-.877-.335-.531 0-.917.152-1.155.466-.247.312-.375.835-.375 1.568v2.922h-1.24v-5.87h.974l.185.77h.053c.18-.281.427-.494.758-.647.32-.158.68-.228 1.074-.228 1.418 0 2.124.713 2.124 2.149v3.826zM21.64 77.693l-.725-2.113c-.04-.14-.12-.365-.226-.673-.085-.297-.155-.526-.189-.665-.085.437-.238.912-.404 1.423l-.708 2.028h2.253zm1.12 3.247-.772-2.156h-2.975l-.76 2.156h-1.34l2.908-7.793h1.374l2.904 7.793h-1.34zM29.14 80.94l-.181-.77h-.057a1.82 1.82 0 0 1-.752.644c-.308.16-.682.229-1.09.229-.71 0-1.244-.17-1.596-.526-.345-.355-.524-.89-.524-1.606v-3.84h1.265v3.621c0 .45.086.788.265 1.013.189.224.484.334.87.334.521 0 .913-.159 1.151-.471.259-.31.378-.839.378-1.571V75.07h1.252v5.87h-.981z" fill="#5A5B5C"/>
                <g transform="translate(31.523 74.965)">
                    <mask id="i" fill="#fff">
                        <use xlink:href="#h"/>
                    </mask>
                    <path d="M4.333 4.306c0 .572-.222 1.013-.64 1.32-.42.304-1.015.456-1.792.456-.785 0-1.417-.12-1.885-.351V4.65c.686.315 1.332.479 1.927.479.768 0 1.151-.232 1.151-.697a.554.554 0 0 0-.13-.37c-.085-.1-.224-.201-.422-.308a6.758 6.758 0 0 0-.806-.363c-.68-.26-1.14-.523-1.375-.784C.125 2.345 0 2.003 0 1.587 0 1.086.205.694.616.416 1.01.138 1.57 0 2.267 0a4.65 4.65 0 0 1 1.957.42l-.397.938c-.64-.26-1.17-.39-1.602-.39-.665 0-.993.185-.993.56 0 .182.086.34.245.466.186.127.574.302 1.132.527.502.186.84.36 1.058.512.232.16.394.34.49.543.103.204.176.45.176.73" fill="#5A5B5C" mask="url(#i)"/>
                </g>
                <path d="M39.374 80.039c.298 0 .611-.047.924-.141v.939a2.874 2.874 0 0 1-.543.152 3.976 3.976 0 0 1-.67.057c-1.187 0-1.775-.618-1.775-1.869v-3.161h-.801v-.554l.864-.455.406-1.244h.785v1.307h1.667v.946h-1.667v3.144c0 .297.06.52.225.667.148.14.347.212.585.212M44.434 74.965c.254 0 .464.017.628.05l-.119 1.163a2.412 2.412 0 0 0-.55-.062c-.51 0-.908.16-1.216.49-.312.327-.472.748-.472 1.27v3.068H41.46V75.07h.977l.17 1.035h.064c.193-.349.439-.633.757-.832a1.81 1.81 0 0 1 1.005-.308M47.964 80.094c.447 0 .815-.128 1.086-.38.277-.257.417-.606.417-1.068v-.505l-.756.032c-.58.018-1.009.119-1.29.295-.259.174-.398.443-.398.803 0 .26.086.46.246.604.152.148.377.219.695.219zm1.866.846-.255-.816h-.037c-.29.36-.564.602-.855.73-.291.131-.66.192-1.11.192-.58 0-1.035-.152-1.354-.465-.319-.312-.474-.752-.474-1.322 0-.61.219-1.061.669-1.375.454-.304 1.134-.47 2.054-.5l1.023-.03v-.315c0-.375-.1-.65-.274-.841-.173-.182-.448-.282-.819-.282-.3 0-.583.05-.868.137a6.72 6.72 0 0 0-.791.312l-.403-.897c.32-.162.67-.29 1.043-.373.38-.088.747-.13 1.077-.13.752 0 1.31.16 1.688.482.38.33.576.843.576 1.54v3.953h-.89z" fill="#5A5B5C"/>
                <mask id="k" fill="#fff">
                    <use xlink:href="#j"/>
                </mask>
                <path fill="#5A5B5C" mask="url(#k)" d="M52.457 80.94h1.249v-8.26h-1.25zM55.49 80.94h1.243v-5.87H55.49v5.87zm-.075-7.428c0-.223.056-.39.182-.51.126-.124.302-.183.525-.183.222 0 .386.059.518.183.11.12.18.287.18.51 0 .214-.07.379-.18.505a.733.733 0 0 1-.518.182c-.223 0-.399-.063-.525-.182-.126-.126-.182-.29-.182-.505zM60.328 80.094c.46 0 .82-.128 1.093-.38.288-.257.42-.606.42-1.068v-.505l-.765.032c-.583.018-1.002.119-1.278.295-.262.174-.394.443-.394.803 0 .26.07.46.225.604.162.148.4.219.699.219zm1.865.846-.241-.816h-.053c-.276.36-.576.602-.848.73-.29.131-.654.192-1.112.192-.575 0-1.022-.152-1.347-.465-.321-.312-.48-.752-.48-1.322 0-.61.218-1.061.664-1.375.444-.304 1.14-.47 2.06-.5l1.013-.03v-.315c0-.375-.083-.65-.26-.841-.181-.182-.457-.282-.821-.282-.295 0-.582.05-.868.137a6.586 6.586 0 0 0-.794.312l-.4-.897c.317-.162.658-.29 1.042-.373.38-.088.735-.13 1.077-.13.749 0 1.308.16 1.693.482.382.33.566.843.566 1.54v3.953h-.891zM69.995 80.94h-1.252v-3.609c0-.452-.095-.79-.28-1.012-.194-.226-.463-.335-.87-.335-.524 0-.905.152-1.16.466-.235.312-.36.835-.36 1.568v2.922h-1.25v-5.87h.988l.16.77h.069a1.75 1.75 0 0 1 .76-.647c.315-.158.68-.228 1.08-.228 1.412 0 2.115.713 2.115 2.149v3.826zM77.862 76.732h2.852v3.9a7.99 7.99 0 0 1-1.344.321c-.424.065-.9.09-1.393.09-1.17 0-2.082-.343-2.718-1.038-.632-.695-.954-1.676-.954-2.943 0-1.25.354-2.23 1.08-2.934.715-.71 1.706-1.062 2.961-1.062.816 0 1.588.16 2.313.47l-.45 1.054c-.63-.287-1.263-.435-1.883-.435-.83 0-1.49.263-1.98.78-.476.523-.706 1.233-.706 2.134 0 .95.206 1.672.64 2.165.44.497 1.061.74 1.875.74.407 0 .844-.049 1.318-.15V77.82h-1.61v-1.089zM83.388 77.993c0 1.36.498 2.034 1.5 2.034.985 0 1.482-.674 1.482-2.034 0-1.34-.497-2.009-1.494-2.009-.526 0-.907.173-1.134.521-.233.348-.354.841-.354 1.488m4.268 0c0 .962-.242 1.712-.736 2.25-.491.536-1.174.803-2.054.803-.547 0-1.03-.12-1.461-.367a2.465 2.465 0 0 1-.97-1.07c-.222-.463-.331-1.001-.331-1.616 0-.949.244-1.694.721-2.228.494-.537 1.173-.8 2.08-.8.841 0 1.515.272 2.004.82.505.547.747 1.284.747 2.208M90.429 80.94l-2.227-5.87h1.315l1.184 3.415c.213.572.34 1.04.388 1.39h.035c.026-.252.153-.716.37-1.39l1.199-3.415h1.324l-2.232 5.87H90.43zM97.245 75.91c-.403 0-.721.125-.95.379-.237.251-.385.613-.43 1.096h2.667c0-.486-.13-.857-.351-1.102-.225-.25-.537-.372-.936-.372m.227 5.135c-.918 0-1.624-.26-2.145-.798-.502-.529-.774-1.262-.774-2.197 0-.962.252-1.716.724-2.264.482-.555 1.13-.822 1.968-.822.774 0 1.385.23 1.84.7.458.474.666 1.124.666 1.949v.67H95.84c.025.573.181 1.01.465 1.317.298.305.698.457 1.235.457.33 0 .663-.031.966-.095a4.92 4.92 0 0 0 .957-.329v1.016a3.975 3.975 0 0 1-.928.308c-.31.06-.666.088-1.063.088M104.15 74.965c.256 0 .458.017.633.05l-.128 1.163a2.4 2.4 0 0 0-.554-.062c-.504 0-.908.16-1.213.49-.315.327-.467.748-.467 1.27v3.068h-1.252V75.07h.981l.165 1.035h.07a2.13 2.13 0 0 1 .758-.832 1.818 1.818 0 0 1 1.008-.308M111.028 80.94h-1.253v-3.609c0-.452-.098-.79-.274-1.012-.182-.226-.473-.335-.86-.335-.535 0-.915.152-1.17.466-.243.312-.359.835-.359 1.568v2.922h-1.249v-5.87h.977l.172.77h.064c.175-.281.435-.494.755-.647.33-.158.682-.228 1.09-.228 1.397 0 2.107.713 2.107 2.149v3.826zM117.712 80.94h-1.254v-3.618c0-.447-.076-.782-.245-1.006-.183-.223-.452-.332-.802-.332-.477 0-.842.155-1.06.47-.234.313-.336.832-.336 1.564v2.922h-1.254v-5.87h.984l.172.77h.065c.15-.281.398-.494.707-.647.305-.158.65-.228 1.019-.228.899 0 1.499.307 1.794.923h.096c.172-.292.414-.519.722-.68a2.368 2.368 0 0 1 1.09-.243c.686 0 1.21.171 1.518.531.325.353.486.893.486 1.618v3.826h-1.237v-3.618c0-.447-.094-.782-.264-1.006-.179-.223-.434-.332-.8-.332-.485 0-.847.151-1.06.45-.24.304-.34.77-.34 1.395v3.111zM125.485 75.91c-.38 0-.712.125-.94.379-.239.251-.391.613-.427 1.096h2.666c-.013-.486-.13-.857-.358-1.102-.222-.25-.544-.372-.94-.372m.238 5.135c-.912 0-1.624-.26-2.146-.798-.514-.529-.77-1.262-.77-2.197 0-.962.233-1.716.722-2.264.471-.555 1.129-.822 1.955-.822.793 0 1.397.23 1.849.7.447.474.666 1.124.666 1.949v.67h-3.9c.018.573.16 1.01.444 1.317.308.305.703.457 1.237.457.349 0 .668-.031.97-.095.303-.066.622-.174.964-.329v1.016a4.102 4.102 0 0 1-.927.308 5.58 5.58 0 0 1-1.064.088M134.589 80.94h-1.255v-3.609c0-.452-.093-.79-.273-1.012-.182-.226-.478-.335-.867-.335-.516 0-.904.152-1.16.466-.241.312-.36.835-.36 1.568v2.922h-1.247v-5.87h.974l.173.77h.063c.184-.281.44-.494.755-.647a2.439 2.439 0 0 1 1.08-.228c1.41 0 2.117.713 2.117 2.149v3.826zM138.515 80.039c.304 0 .6-.047.908-.141v.939a2.477 2.477 0 0 1-.53.152 3.947 3.947 0 0 1-.681.057c-1.192 0-1.774-.618-1.774-1.869v-3.161h-.805v-.554l.86-.455.43-1.244h.767v1.307h1.68v.946h-1.68v3.144c0 .297.087.52.225.667.156.14.35.212.6.212M143.558 80.94h1.265V73.18h-1.265zM151.912 80.94h-1.26v-3.609c0-.452-.086-.79-.267-1.012-.185-.226-.476-.335-.872-.335-.526 0-.91.152-1.162.466-.247.312-.37.835-.37 1.568v2.922h-1.233v-5.87h.978l.173.77h.05c.183-.281.438-.494.763-.647.311-.158.683-.228 1.08-.228 1.415 0 2.12.713 2.12 2.149v3.826zM153.635 80.94h1.256v-5.87h-1.256v5.87zm-.062-7.428c0-.223.056-.39.181-.51.126-.124.295-.183.517-.183.222 0 .397.059.527.183.11.12.172.287.172.51a.741.741 0 0 1-.172.505c-.13.12-.305.182-.527.182-.222 0-.391-.063-.517-.182-.125-.126-.181-.29-.181-.505zM158.86 80.039c.3 0 .603-.047.916-.141v.939a2.42 2.42 0 0 1-.534.152 3.997 3.997 0 0 1-.674.057c-1.183 0-1.771-.618-1.771-1.869v-3.161h-.816v-.554l.866-.455.422-1.244h.777v1.307h1.668v.946h-1.668v3.144c0 .297.078.52.227.667.147.14.341.212.586.212M160.947 80.94h1.252v-5.87h-1.252v5.87zm-.07-7.428c0-.223.061-.39.175-.51.133-.124.302-.183.527-.183.222 0 .39.059.517.183a.713.713 0 0 1 .185.51.732.732 0 0 1-.185.505c-.126.12-.295.182-.517.182a.75.75 0 0 1-.527-.182.722.722 0 0 1-.175-.505zM165.793 80.094c.454 0 .818-.128 1.097-.38.264-.257.412-.606.412-1.068v-.505l-.757.032c-.594.018-1.014.119-1.289.295-.258.174-.394.443-.394.803 0 .26.073.46.234.604.155.148.382.219.697.219zm1.853.846-.24-.816h-.043c-.291.36-.569.602-.858.73-.285.131-.65.192-1.106.192-.576 0-1.024-.152-1.352-.465-.32-.312-.48-.752-.48-1.322 0-.61.222-1.061.674-1.375.443-.304 1.138-.47 2.052-.5l1.009-.03v-.315c0-.375-.077-.65-.26-.841-.167-.182-.45-.282-.812-.282-.301 0-.592.05-.867.137-.267.086-.54.192-.792.312l-.408-.897c.322-.162.667-.29 1.044-.373.38-.088.738-.13 1.074-.13.748 0 1.318.16 1.699.482.371.33.566.843.566 1.54v3.953h-.9zM172.47 80.039c.304 0 .608-.047.913-.141v.939c-.14.061-.321.109-.537.152a3.804 3.804 0 0 1-.668.057c-1.183 0-1.773-.618-1.773-1.869v-3.161h-.808v-.554l.867-.455.42-1.244h.76v1.307h1.683v.946h-1.683v3.144c0 .297.075.52.239.667.152.14.34.212.587.212M174.558 80.94h1.244v-5.87h-1.244v5.87zm-.075-7.428c0-.223.066-.39.186-.51.122-.124.3-.183.524-.183.227 0 .386.059.506.183.132.12.188.287.188.51 0 .214-.056.379-.188.505-.12.12-.279.182-.506.182-.224 0-.402-.063-.524-.182a.703.703 0 0 1-.186-.505zM178.935 80.94l-2.233-5.87h1.314l1.194 3.415c.211.572.33 1.04.368 1.39h.048c.033-.252.144-.716.372-1.39l1.19-3.415h1.336l-2.249 5.87h-1.34zM185.743 75.91c-.394 0-.719.125-.944.379-.238.251-.391.613-.43 1.096h2.664c-.004-.486-.123-.857-.357-1.102-.223-.25-.53-.372-.933-.372m.229 5.135c-.914 0-1.62-.26-2.144-.798-.516-.529-.763-1.262-.763-2.197 0-.962.233-1.716.7-2.264.488-.555 1.144-.822 1.978-.822.781 0 1.393.23 1.84.7.45.474.675 1.124.675 1.949v.67h-3.906c.01.573.16 1.01.467 1.317.285.305.682.457 1.22.457.34 0 .665-.031.966-.095.299-.066.607-.174.961-.329v1.016c-.305.145-.61.245-.925.308-.31.06-.665.088-1.07.088"/>
            </g>
        </g>
        <path fill="#FFF" d="M133.267 2.384h-.953v60.07h.953z"/>
    </g>
</svg>
