<svg width="174" height="25" viewBox="0 0 174 25" xmlns="http://www.w3.org/2000/svg" xmlns:xlink="http://www.w3.org/1999/xlink">
    <defs>
        <path id="a" d="M0 0h14.767v17.18H0z"/>
        <path id="c" d="M0 0h15.211v25H0z"/>
        <path id="e" d="M0 0h14.766v17.18H0z"/>
        <path id="g" d="M0 0h14.148v24.659H0z"/>
    </defs>
    <g fill="none" fill-rule="evenodd">
        <path d="M9.394.99.5 24.66h4.498l2.163-5.978h8.963l2.267 6.215 4.532-.817L14.235.99h-4.84zm2.231 4.918 3.228 9.086H8.397l3.228-9.086zM24.567.649v24.01h4.12V0zM38.969 3.654c-1.409 0-2.163.614-2.163 2.083v2.425h3.16l.514 3.347h-3.674v13.148h-4.087V11.51h-2.403V8.162h2.403V5.329c0-3.656 2.335-5.022 5.734-5.022.722 0 1.27.069 1.682.137l.55 3.346a10.848 10.848 0 0 0-1.716-.136M45.81 15.199v9.46h-4.122V8.162h3.503l.514 3.313c1.1-1.913 2.748-3.518 5.323-3.655l.653 4.065c-2.576.171-4.705 1.537-5.872 3.314" fill="#FEFEFE"/>
        <g transform="translate(52.167 7.82)">
            <mask id="b" fill="#fff">
                <use xlink:href="#a"/>
            </mask>
            <path d="M7.451 2.835c-1.648 0-2.987 1.298-3.295 3.996h6.592c-.274-2.562-1.304-3.996-3.297-3.996m7.28 6.557H4.088c.206 3.21 1.922 4.61 4.463 4.61 2.13 0 3.88-.785 5.7-2.047l.482 3.208c-1.786 1.23-3.949 2.016-6.627 2.016C3.469 17.18 0 14.55 0 8.607 0 3.244 3.228 0 7.555 0c4.98 0 7.212 3.722 7.212 8.401 0 .343-.035.752-.035.991" fill="#FEFEFE" mask="url(#b)"/>
        </g>
        <g transform="translate(68.33)">
            <mask id="d" fill="#fff">
                <use xlink:href="#c"/>
            </mask>
            <path d="M11.091 11.988c-1.03-.478-1.82-.717-3.227-.717-2.163 0-3.745 1.74-3.745 5.362 0 3.208 1.374 4.712 3.195 4.712 1.51 0 2.678-.888 3.777-2.253v-7.104zm.584 12.669-.343-2.287C10.164 23.77 8.55 25 6.25 25 2.78 25 0 22.437 0 16.872c0-6.148 3.399-8.88 7.245-8.88 1.58 0 2.85.272 3.846.615V.65l4.12-.65v24.657h-3.536z" fill="#FEFEFE" mask="url(#d)"/>
        </g>
        <path fill="#FEFEFE" d="M101.607 24.659V14.413H91.546V24.66h-4.567V1.093h4.567v9.29h10.061v-9.29h4.566v23.566z"/>
        <g transform="translate(108.818 7.82)">
            <mask id="f" fill="#fff">
                <use xlink:href="#e"/>
            </mask>
            <path d="M7.451 2.835c-1.648 0-2.988 1.298-3.295 3.996h6.591c-.274-2.562-1.303-3.996-3.296-3.996m7.28 6.557H4.086c.207 3.21 1.923 4.61 4.464 4.61 2.128 0 3.88-.785 5.7-2.047l.48 3.208c-1.784 1.23-3.947 2.016-6.625 2.016C3.468 17.18 0 14.55 0 8.607 0 3.244 3.228 0 7.555 0c4.98 0 7.21 3.722 7.21 8.401 0 .343-.034.752-.034.991" fill="#FEFEFE" mask="url(#f)"/>
        </g>
        <path d="M134.688 16.427c-4.773.58-5.906 1.98-5.906 3.552 0 1.196.755 1.912 2.026 1.912 1.407 0 2.747-.649 3.88-1.775v-3.689zm.584 8.232-.343-2.154c-1.34 1.4-3.057 2.495-5.53 2.495-2.816 0-4.704-1.707-4.704-4.577 0-3.996 3.297-5.737 9.993-6.387v-.478c0-1.775-1.03-2.459-2.85-2.459-1.923 0-3.743.547-5.53 1.331l-.514-3.277c1.922-.751 3.949-1.332 6.594-1.332 4.291 0 6.421 1.57 6.421 5.533V24.66h-3.537zM141.728 24.659V.649l4.12-.649V24.66zM155.18 24.932c-3.261 0-5.46-1.196-5.46-4.952v-8.47h-2.334V8.161h2.335V2.937l4.052-.615v5.84h3.4l.514 3.347h-3.914v7.787c0 1.331.617 2.049 2.198 2.049.48 0 .926-.034 1.304-.137l.516 3.45c-.654.136-1.408.274-2.61.274" fill="#FEFEFE"/>
        <g transform="translate(159.648)">
            <mask id="h" fill="#fff">
                <use xlink:href="#g"/>
            </mask>
            <path d="M10.027 24.659V13.865c0-1.433-.618-2.424-2.13-2.424-1.303 0-2.574.82-3.776 2.083v11.135H0V.649L4.121 0v10.246C5.495 8.982 7.211 7.82 9.41 7.82c3.09 0 4.739 1.878 4.739 4.953v11.885h-4.121z" fill="#FEFEFE" mask="url(#h)"/>
        </g>
    </g>
</svg>
