<svg width="158" height="70" viewBox="0 0 158 70" xmlns="http://www.w3.org/2000/svg" xmlns:xlink="http://www.w3.org/1999/xlink">
    <defs>
        <path id="a" d="M0 70h157V0H0z"/>
    </defs>
    <g fill="none" fill-rule="evenodd">
        <path fill="#FDFEFE" d="M132.884 12.095h15.89L140.837.028zM114.512 12.09h15.88L122.444.02zM75.553 13.095 67.6 25.164l-7.933-12.07zM93.936 13.095l-7.948 12.069-7.937-12.07zM121.17 26.193l-7.944 12.068-7.937-12.068zM141.372 26.217l7.949 12.07 7.924-12.07zM112.015 13.095l-7.928 12.069-7.945-12.07zM130.382 13.095l-7.942 12.069-7.94-12.07zM148.302 13.095l-7.944 12.069-7.947-12.07zM68.869 25.164l7.937-12.07 7.943 12.07zM105.289 25.164l7.937-12.07 7.945 12.07zM141.621 25.198H157.5l-7.936-12.07zM96.374 12.082h15.885L104.31.015zM77.99 12.082h15.872L85.916.015zM87.188.014l7.93 12.068 7.95-12.068zM18.757 47.742l-6.281 14.89-6.264-14.89H.5v21.852h4.234V53.988l5.7 13.763h4.096l5.71-13.763v15.606h4.217V47.742z"/>
        <g transform="translate(.5)">
            <path d="M37.668 59.7c-.096-2-1.53-3.309-3.499-3.309-2.042 0-3.364 1.436-3.545 3.31h7.044zm-3.576-6.837c5.074 0 7.949 3.369 7.949 8.71 0 .312 0 .623-.016.933H30.497c.092 2.188 1.856 3.747 4.262 3.747a4.837 4.837 0 0 0 3.979-1.997l2.834 2.154c-.627 1.157-2.809 3.59-6.885 3.59-5.26 0-8.598-3.619-8.598-8.521 0-4.93 3.339-8.616 8.003-8.616zM52.867 57.233c-3.214 0-4.403 2-4.403 5.248v7.118H44.14v-16.33h4.228v2.373c.726-1.622 2.346-2.78 4.499-2.78v4.37zM63.394 57.233c-3.224 0-4.416 2-4.416 5.248v7.118h-4.322v-16.33h4.225v2.373c.722-1.622 2.35-2.78 4.513-2.78v4.37z" fill="#FDFEFE"/>
            <mask id="b" fill="#fff">
                <use xlink:href="#a"/>
            </mask>
            <path d="M65.174 69.594h4.333V53.269h-4.333v16.325zm2.127-22.727c1.447 0 2.538 1.063 2.538 2.47 0 1.403-1.091 2.466-2.538 2.466-1.405 0-2.492-1.063-2.492-2.466 0-1.407 1.087-2.47 2.492-2.47zM78.25 47.742h1.593v9.932h12.936v-9.932h1.586v21.856H92.78V59.17H79.843v10.428H78.25zM110.497 60.39c-.187-4.061-2.983-5.964-6.048-5.964-2.939 0-5.757 1.997-6.071 5.963h12.119zm-6.012-7.403c4.658 0 7.637 3.47 7.637 8.118v.653H98.285c0 4.308 2.756 6.808 6.633 6.808 3.01 0 4.668-1.467 5.605-2.78l1.027.717c-1.053 1.72-3.116 3.497-6.632 3.497-4.785 0-8.264-3.4-8.264-8.457 0-5.311 3.699-8.556 7.831-8.556zM119.84 68.566c2.76 0 4.674-1.69 4.674-3.935 0-2.307-1.847-3.871-4.704-3.871-2.878 0-4.683 1.686-4.683 3.871 0 2.154 1.805 3.935 4.714 3.935m-.081-9.245c2.215 0 3.935.94 4.66 1.749v-2.464c0-2.713-1.785-4.18-4.46-4.18-2.148 0-3.865.81-4.999 1.497l-.657-1.222c.885-.56 3.014-1.714 5.76-1.714 4.033 0 5.923 2.344 5.923 5.713v10.898h-1.296l-.272-1.531c-.886 1-2.306 1.933-4.659 1.933-3.696 0-6.234-2.37-6.234-5.369 0-3.059 2.624-5.31 6.234-5.31M129.112 69.594h1.559V47.028h-1.559zM134.696 50.021h1.546v3.374h3.82V54.8h-3.82v9.112c0 3.53.813 4.435 3.257 4.435.347 0 .733-.032.733-.032v1.407s-.76.061-1.354.061c-2.567 0-4.182-1.595-4.182-4.87V54.8h-2.024v-1.405h2.024v-3.374zM154.739 59.077v10.516h-1.555V59.197c0-2.965-1.887-4.771-4.418-4.771-2.852 0-4.885 2.123-4.885 5.274v9.893h-1.559V47.024h1.56v8.929c.813-1.624 2.793-2.966 5.066-2.966 3.349 0 5.79 2.311 5.79 6.09M131.126 12.066 139.075 0h-15.89z" fill="#FDFEFE" mask="url(#b)"/>
        </g>
    </g>
</svg>
